EESchema Schematic File Version 4
LIBS:rosetronics_universal-cache
EELAYER 29 0
EELAYER END
$Descr A4 11693 8268
encoding utf-8
Sheet 1 2
Title ""
Date ""
Rev ""
Comp ""
Comment1 ""
Comment2 ""
Comment3 ""
Comment4 ""
$EndDescr
$Comp
L Connector:DB15_Female J3
U 1 1 5D37066C
P 850 6600
F 0 "J3" H 950 5700 50  0000 C CNN
F 1 "PORT" H 1000 7450 50  0000 C CNN
F 2 "Connector_Dsub:DSUB-15_Male_Vertical_P2.77x2.84mm_MountingHoles" H 850 6600 50  0001 C CNN
F 3 " ~" H 850 6600 50  0001 C CNN
	1    850  6600
	-1   0    0    1   
$EndComp
$Comp
L Connector:Conn_01x08_Male J6
U 1 1 5D41CBD3
P 6700 1850
F 0 "J6" H 6808 2331 50  0000 C CNN
F 1 "MFRC522" H 6650 1350 50  0000 C CNN
F 2 "Connector_JST:JST_XH_B8B-XH-A_1x08_P2.50mm_Vertical" H 6700 1850 50  0001 C CNN
F 3 "~" H 6700 1850 50  0001 C CNN
	1    6700 1850
	1    0    0    -1  
$EndComp
Wire Wire Line
	6900 1550 7000 1550
Wire Wire Line
	6900 1650 7000 1650
Wire Wire Line
	7000 1750 6900 1750
Wire Wire Line
	6900 1850 7000 1850
Wire Wire Line
	7000 1950 6900 1950
Wire Wire Line
	6900 2150 7000 2150
$Comp
L Regulator_Linear:L7805 U3
U 1 1 5D430F31
P 7150 3800
F 0 "U3" H 7050 3950 50  0000 C CNN
F 1 "L7805" H 7000 3550 50  0000 C CNN
F 2 "Package_TO_SOT_THT:TO-220-3_Vertical" H 7175 3650 50  0001 L CIN
F 3 "http://www.st.com/content/ccc/resource/technical/document/datasheet/41/4f/b3/b0/12/d4/47/88/CD00000444.pdf/files/CD00000444.pdf/jcr:content/translations/en.CD00000444.pdf" H 7150 3750 50  0001 C CNN
	1    7150 3800
	-1   0    0    -1  
$EndComp
$Comp
L Device:Jumper_NC_Small JP4
U 1 1 5D40D7FD
P 10050 1300
F 0 "JP4" H 10050 1400 50  0000 C CNN
F 1 "JUMPER_POWER" H 10050 1200 50  0001 C CNN
F 2 "Connector_PinHeader_2.54mm:PinHeader_1x02_P2.54mm_Vertical" H 10050 1300 50  0001 C CNN
F 3 "~" H 10050 1300 50  0001 C CNN
	1    10050 1300
	1    0    0    -1  
$EndComp
Wire Wire Line
	10050 2250 10050 3100
Connection ~ 10050 2250
Wire Wire Line
	10050 2150 10050 2250
Wire Wire Line
	10350 2250 10050 2250
$Comp
L power:VDDA #PWR039
U 1 1 5D4096CF
P 8950 1000
F 0 "#PWR039" H 8950 850 50  0001 C CNN
F 1 "VDDA" H 8967 1173 50  0000 C CNN
F 2 "" H 8950 1000 50  0001 C CNN
F 3 "" H 8950 1000 50  0001 C CNN
	1    8950 1000
	1    0    0    -1  
$EndComp
$Comp
L power:VDDA #PWR044
U 1 1 5D409491
P 9650 1000
F 0 "#PWR044" H 9650 850 50  0001 C CNN
F 1 "VDDA" H 9667 1173 50  0000 C CNN
F 2 "" H 9650 1000 50  0001 C CNN
F 3 "" H 9650 1000 50  0001 C CNN
	1    9650 1000
	1    0    0    -1  
$EndComp
$Comp
L power:VDDA #PWR047
U 1 1 5D408BDF
P 9900 1000
F 0 "#PWR047" H 9900 850 50  0001 C CNN
F 1 "VDDA" H 9917 1173 50  0000 C CNN
F 2 "" H 9900 1000 50  0001 C CNN
F 3 "" H 9900 1000 50  0001 C CNN
	1    9900 1000
	1    0    0    -1  
$EndComp
$Comp
L Connector:Screw_Terminal_01x08 J9
U 1 1 5D40639E
P 10550 1850
F 0 "J9" H 10600 2300 50  0000 L CNN
F 1 "PIO RM3.81" H 10150 1350 50  0000 L CNN
F 2 "Connector_Phoenix_MC:PhoenixContact_MCV_1,5_8-G-3.81_1x08_P3.81mm_Vertical" H 10550 1850 50  0001 C CNN
F 3 "~" H 10550 1850 50  0001 C CNN
	1    10550 1850
	1    0    0    -1  
$EndComp
Text Label 1950 2750 0    50   ~ 0
SWIN2
Connection ~ 2300 2600
Text Label 1950 2400 0    50   ~ 0
SWIN1
Connection ~ 8950 1850
Connection ~ 2300 2950
Wire Wire Line
	1850 2600 1900 2600
Connection ~ 1850 2600
Wire Wire Line
	1850 2750 1950 2750
Wire Wire Line
	1850 2600 1850 2750
Wire Wire Line
	1850 2250 1900 2250
Connection ~ 1850 2250
Wire Wire Line
	1850 2400 1950 2400
Wire Wire Line
	1850 2250 1850 2400
Wire Wire Line
	1800 2250 1850 2250
Wire Wire Line
	1800 2600 1850 2600
Wire Wire Line
	2300 2600 2300 2950
Wire Wire Line
	2200 2600 2300 2600
Wire Wire Line
	2300 2250 2300 2600
Wire Wire Line
	2200 2250 2300 2250
$Comp
L Device:R R12
U 1 1 5D3DE377
P 2050 2600
F 0 "R12" V 1950 2500 50  0000 C CNN
F 1 "1K" V 1950 2700 50  0000 C CNN
F 2 "Resistors:R_0805_2012Metric_Pad1.15x1.40mm_HandSolder" V 1980 2600 50  0001 C CNN
F 3 "~" H 2050 2600 50  0001 C CNN
	1    2050 2600
	0    1    1    0   
$EndComp
$Comp
L Device:R R8
U 1 1 5D3DE1C9
P 1650 2600
F 0 "R8" V 1550 2500 50  0000 C CNN
F 1 "10K" V 1550 2700 50  0000 C CNN
F 2 "Resistors:R_0805_2012Metric_Pad1.15x1.40mm_HandSolder" V 1580 2600 50  0001 C CNN
F 3 "~" H 1650 2600 50  0001 C CNN
	1    1650 2600
	0    1    1    0   
$EndComp
$Comp
L Device:R R11
U 1 1 5D3DD7DC
P 2050 2250
F 0 "R11" V 1950 2150 50  0000 C CNN
F 1 "1K" V 1950 2350 50  0000 C CNN
F 2 "Resistors:R_0805_2012Metric_Pad1.15x1.40mm_HandSolder" V 1980 2250 50  0001 C CNN
F 3 "~" H 2050 2250 50  0001 C CNN
	1    2050 2250
	0    1    1    0   
$EndComp
Text Label 1300 2600 2    50   ~ 0
SWITCH2
Text Label 1300 2250 2    50   ~ 0
SWITCH1
$Comp
L Device:R R7
U 1 1 5D3DC99B
P 1650 2250
F 0 "R7" V 1550 2150 50  0000 C CNN
F 1 "10K" V 1550 2350 50  0000 C CNN
F 2 "Resistors:R_0805_2012Metric_Pad1.15x1.40mm_HandSolder" V 1580 2250 50  0001 C CNN
F 3 "~" H 1650 2250 50  0001 C CNN
	1    1650 2250
	0    1    1    0   
$EndComp
Wire Wire Line
	1400 3250 1300 3250
Wire Wire Line
	1400 2950 1300 2950
Wire Wire Line
	1700 2950 1800 2950
Wire Wire Line
	1800 3250 1700 3250
Wire Wire Line
	2300 3250 2300 3350
Connection ~ 2300 3250
Wire Wire Line
	2100 3250 2300 3250
Wire Wire Line
	2300 2950 2300 3250
Wire Wire Line
	2100 2950 2300 2950
$Comp
L Device:R R5
U 1 1 5D3D38F4
P 1550 2950
F 0 "R5" V 1450 2850 50  0000 C CNN
F 1 "4K7" V 1450 3050 50  0000 C CNN
F 2 "Resistors:R_0805_2012Metric_Pad1.15x1.40mm_HandSolder" V 1480 2950 50  0001 C CNN
F 3 "~" H 1550 2950 50  0001 C CNN
	1    1550 2950
	0    1    1    0   
$EndComp
$Comp
L Device:R R6
U 1 1 5D3D33D7
P 1550 3250
F 0 "R6" V 1450 3150 50  0000 C CNN
F 1 "4K7" V 1450 3350 50  0000 C CNN
F 2 "Resistors:R_0805_2012Metric_Pad1.15x1.40mm_HandSolder" V 1480 3250 50  0001 C CNN
F 3 "~" H 1550 3250 50  0001 C CNN
	1    1550 3250
	0    1    1    0   
$EndComp
$Comp
L Device:LED D2
U 1 1 5D3D0F54
P 1950 3250
F 0 "D2" H 2050 3150 50  0000 C CNN
F 1 "LED" H 1900 3350 50  0000 C CNN
F 2 "Diode_SMD:D_0805_2012Metric_Pad1.15x1.40mm_HandSolder" H 1950 3250 50  0001 C CNN
F 3 "~" H 1950 3250 50  0001 C CNN
	1    1950 3250
	-1   0    0    1   
$EndComp
$Comp
L Device:LED D1
U 1 1 5D3CF47F
P 1950 2950
F 0 "D1" H 2050 2850 50  0000 C CNN
F 1 "LED" H 1900 3050 50  0000 C CNN
F 2 "Diode_SMD:D_0805_2012Metric_Pad1.15x1.40mm_HandSolder" H 1950 2950 50  0001 C CNN
F 3 "~" H 1950 2950 50  0001 C CNN
	1    1950 2950
	-1   0    0    1   
$EndComp
Wire Wire Line
	10350 2150 10050 2150
Wire Wire Line
	10350 2050 10100 2050
Text Label 10100 2050 2    50   ~ 0
SWITCH2
Text Label 10100 1950 2    50   ~ 0
SWITCH1
Wire Wire Line
	8950 3000 8950 3100
Connection ~ 8950 3000
Wire Wire Line
	9650 2450 9650 3100
Connection ~ 9650 2450
Wire Wire Line
	8950 2950 8950 3000
Wire Wire Line
	9650 2400 9650 2450
Wire Wire Line
	8950 1000 8950 1350
Wire Wire Line
	9650 1000 9650 1150
Wire Wire Line
	9650 1450 9650 1750
$Comp
L Device:Q_NMOS_GDS Q1
U 1 1 5D3A1122
P 8850 2750
F 0 "Q1" H 8700 2950 50  0000 L CNN
F 1 "IRLZ44N" H 9000 2500 50  0000 L CNN
F 2 "Package_TO_SOT_THT:TO-220-3_Vertical" H 9050 2850 50  0001 C CNN
F 3 "~" H 8850 2750 50  0001 C CNN
	1    8850 2750
	1    0    0    -1  
$EndComp
Wire Wire Line
	8950 1850 8950 2550
Wire Wire Line
	10350 1850 8950 1850
Wire Wire Line
	8950 1650 8950 1850
Connection ~ 9650 1750
Wire Wire Line
	9650 1750 9650 2000
Wire Wire Line
	10350 1750 9650 1750
Wire Wire Line
	10350 1650 9900 1650
$Comp
L Device:D D4
U 1 1 5D3B7FB9
P 8950 1500
F 0 "D4" V 8850 1350 50  0000 L CNN
F 1 "1N4004" V 9050 1200 50  0000 L CNN
F 2 "Diode_SMD:D_SMA-SMB_Universal_Handsoldering" H 8950 1500 50  0001 C CNN
F 3 "~" H 8950 1500 50  0001 C CNN
	1    8950 1500
	0    1    1    0   
$EndComp
$Comp
L Device:D D5
U 1 1 5D3B5919
P 9650 1300
F 0 "D5" V 9550 1150 50  0000 L CNN
F 1 "1N4004" V 9750 1000 50  0000 L CNN
F 2 "Diode_SMD:D_SMA-SMB_Universal_Handsoldering" H 9650 1300 50  0001 C CNN
F 3 "~" H 9650 1300 50  0001 C CNN
	1    9650 1300
	0    1    1    0   
$EndComp
$Comp
L Connector:Barrel_Jack J7
U 1 1 5D36FECB
P 8350 3900
F 0 "J7" H 8250 4150 50  0000 C CNN
F 1 "PWR_Jack" H 8400 3650 50  0000 C CNN
F 2 "Connector_JST:JST_XH_B2B-XH-A_1x02_P2.50mm_Vertical" H 8400 3860 50  0001 C CNN
F 3 "~" H 8400 3860 50  0001 C CNN
	1    8350 3900
	-1   0    0    -1  
$EndComp
$Comp
L power:GND #PWR048
U 1 1 5D4437AE
P 10050 3100
F 0 "#PWR048" H 10050 2850 50  0001 C CNN
F 1 "GND" H 10055 2927 50  0000 C CNN
F 2 "" H 10050 3100 50  0001 C CNN
F 3 "" H 10050 3100 50  0001 C CNN
	1    10050 3100
	1    0    0    -1  
$EndComp
$Comp
L power:GND #PWR045
U 1 1 5D443A7D
P 9650 3100
F 0 "#PWR045" H 9650 2850 50  0001 C CNN
F 1 "GND" H 9655 2927 50  0000 C CNN
F 2 "" H 9650 3100 50  0001 C CNN
F 3 "" H 9650 3100 50  0001 C CNN
	1    9650 3100
	1    0    0    -1  
$EndComp
$Comp
L power:GND #PWR040
U 1 1 5D443D73
P 8950 3100
F 0 "#PWR040" H 8950 2850 50  0001 C CNN
F 1 "GND" H 8955 2927 50  0000 C CNN
F 2 "" H 8950 3100 50  0001 C CNN
F 3 "" H 8950 3100 50  0001 C CNN
	1    8950 3100
	1    0    0    -1  
$EndComp
$Comp
L power:GND #PWR012
U 1 1 5D44429E
P 2300 3350
F 0 "#PWR012" H 2300 3100 50  0001 C CNN
F 1 "GND" H 2305 3177 50  0000 C CNN
F 2 "" H 2300 3350 50  0001 C CNN
F 3 "" H 2300 3350 50  0001 C CNN
	1    2300 3350
	1    0    0    -1  
$EndComp
$Comp
L power:GND #PWR036
U 1 1 5D444780
P 8000 4250
F 0 "#PWR036" H 8000 4000 50  0001 C CNN
F 1 "GND" H 8005 4077 50  0000 C CNN
F 2 "" H 8000 4250 50  0001 C CNN
F 3 "" H 8000 4250 50  0001 C CNN
	1    8000 4250
	1    0    0    -1  
$EndComp
Wire Wire Line
	8050 4000 8000 4000
Wire Wire Line
	8000 4000 8000 4250
$Comp
L power:GND #PWR030
U 1 1 5D447C09
P 7150 4250
F 0 "#PWR030" H 7150 4000 50  0001 C CNN
F 1 "GND" H 7155 4077 50  0000 C CNN
F 2 "" H 7150 4250 50  0001 C CNN
F 3 "" H 7150 4250 50  0001 C CNN
	1    7150 4250
	1    0    0    -1  
$EndComp
Wire Wire Line
	7150 4100 7150 4250
$Comp
L Device:C C3
U 1 1 5D449BCD
P 7600 4050
F 0 "C3" H 7715 4096 50  0000 L CNN
F 1 "100µF" H 7715 4005 50  0000 L CNN
F 2 "Capacitor_SMD:CP_Elec_6.3x5.9" H 7638 3900 50  0001 C CNN
F 3 "~" H 7600 4050 50  0001 C CNN
	1    7600 4050
	1    0    0    -1  
$EndComp
$Comp
L power:GND #PWR034
U 1 1 5D4507B0
P 7600 4250
F 0 "#PWR034" H 7600 4000 50  0001 C CNN
F 1 "GND" H 7605 4077 50  0000 C CNN
F 2 "" H 7600 4250 50  0001 C CNN
F 3 "" H 7600 4250 50  0001 C CNN
	1    7600 4250
	1    0    0    -1  
$EndComp
Wire Wire Line
	7600 3900 7600 3800
Connection ~ 7600 3800
Wire Wire Line
	7600 3800 7450 3800
Wire Wire Line
	7600 4200 7600 4250
Wire Wire Line
	7600 3800 7750 3800
$Comp
L power:VDD #PWR035
U 1 1 5D43D6A7
P 7750 3300
F 0 "#PWR035" H 7750 3150 50  0001 C CNN
F 1 "VDD" H 7767 3473 50  0000 C CNN
F 2 "" H 7750 3300 50  0001 C CNN
F 3 "" H 7750 3300 50  0001 C CNN
	1    7750 3300
	1    0    0    -1  
$EndComp
$Comp
L Device:D D3
U 1 1 5D4574AE
P 7750 3600
F 0 "D3" V 7704 3679 50  0000 L CNN
F 1 "1N4004" V 7795 3679 50  0000 L CNN
F 2 "Diode_SMD:D_SMA-SMB_Universal_Handsoldering" H 7750 3600 50  0001 C CNN
F 3 "~" H 7750 3600 50  0001 C CNN
	1    7750 3600
	0    -1   -1   0   
$EndComp
Wire Wire Line
	7750 3750 7750 3800
Connection ~ 7750 3800
Wire Wire Line
	7750 3800 8050 3800
Wire Wire Line
	10200 1550 10200 1300
Wire Wire Line
	9900 1000 9900 1300
Wire Wire Line
	10150 1300 10200 1300
Connection ~ 10200 1300
Wire Wire Line
	10200 1300 10200 1000
Wire Wire Line
	9950 1300 9900 1300
Connection ~ 9900 1300
Wire Wire Line
	9900 1300 9900 1650
$Comp
L Connector:Conn_01x03_Male J1
U 1 1 5D48D439
P 850 4150
F 0 "J1" H 800 4350 50  0000 C CNN
F 1 "RDM6300_B" H 950 3950 50  0000 C CNN
F 2 "Connector_JST:JST_XH_B3B-XH-A_1x03_P2.50mm_Vertical" H 850 4150 50  0001 C CNN
F 3 "~" H 850 4150 50  0001 C CNN
	1    850  4150
	1    0    0    -1  
$EndComp
$Comp
L Connector:Conn_01x03_Male J2
U 1 1 5D48DFD1
P 850 5150
F 0 "J2" H 800 5350 50  0000 C CNN
F 1 "RDM6300_A" H 950 4950 50  0000 C CNN
F 2 "Connector_JST:JST_XH_B3B-XH-A_1x03_P2.50mm_Vertical" H 850 5150 50  0001 C CNN
F 3 "~" H 850 5150 50  0001 C CNN
	1    850  5150
	1    0    0    -1  
$EndComp
$Comp
L power:GND #PWR06
U 1 1 5D48F1EF
P 1400 5400
F 0 "#PWR06" H 1400 5150 50  0001 C CNN
F 1 "GND" H 1405 5227 50  0000 C CNN
F 2 "" H 1400 5400 50  0001 C CNN
F 3 "" H 1400 5400 50  0001 C CNN
	1    1400 5400
	1    0    0    -1  
$EndComp
$Comp
L power:+5V #PWR02
U 1 1 5D49007D
P 1150 3950
F 0 "#PWR02" H 1150 3800 50  0001 C CNN
F 1 "+5V" H 1165 4123 50  0000 C CNN
F 2 "" H 1150 3950 50  0001 C CNN
F 3 "" H 1150 3950 50  0001 C CNN
	1    1150 3950
	1    0    0    -1  
$EndComp
$Comp
L power:GND #PWR05
U 1 1 5D491355
P 1400 4400
F 0 "#PWR05" H 1400 4150 50  0001 C CNN
F 1 "GND" H 1405 4227 50  0000 C CNN
F 2 "" H 1400 4400 50  0001 C CNN
F 3 "" H 1400 4400 50  0001 C CNN
	1    1400 4400
	1    0    0    -1  
$EndComp
Wire Wire Line
	1050 4050 1150 4050
Wire Wire Line
	1150 4050 1150 3950
Wire Wire Line
	1050 4250 1400 4250
Wire Wire Line
	1400 4250 1400 4400
$Comp
L power:+5V #PWR03
U 1 1 5D499708
P 1150 4950
F 0 "#PWR03" H 1150 4800 50  0001 C CNN
F 1 "+5V" H 1165 5123 50  0000 C CNN
F 2 "" H 1150 4950 50  0001 C CNN
F 3 "" H 1150 4950 50  0001 C CNN
	1    1150 4950
	1    0    0    -1  
$EndComp
Wire Wire Line
	1050 5250 1400 5250
Wire Wire Line
	1400 5250 1400 5400
Wire Wire Line
	1050 5050 1150 5050
Wire Wire Line
	1150 5050 1150 4950
$Comp
L Device:R R4
U 1 1 5D4A4FAD
P 1350 5150
F 0 "R4" V 1250 5050 50  0000 C CNN
F 1 "10K" V 1250 5250 50  0000 C CNN
F 2 "Resistors:R_0805_2012Metric_Pad1.15x1.40mm_HandSolder" V 1280 5150 50  0001 C CNN
F 3 "~" H 1350 5150 50  0001 C CNN
	1    1350 5150
	0    1    1    0   
$EndComp
$Comp
L Device:R R3
U 1 1 5D4B18F7
P 1350 4150
F 0 "R3" V 1250 4050 50  0000 C CNN
F 1 "10K" V 1250 4250 50  0000 C CNN
F 2 "Resistors:R_0805_2012Metric_Pad1.15x1.40mm_HandSolder" V 1280 4150 50  0001 C CNN
F 3 "~" H 1350 4150 50  0001 C CNN
	1    1350 4150
	0    1    1    0   
$EndComp
$Comp
L power:GND #PWR010
U 1 1 5D4B1D8F
P 2000 4400
F 0 "#PWR010" H 2000 4150 50  0001 C CNN
F 1 "GND" H 2005 4227 50  0000 C CNN
F 2 "" H 2000 4400 50  0001 C CNN
F 3 "" H 2000 4400 50  0001 C CNN
	1    2000 4400
	1    0    0    -1  
$EndComp
$Comp
L Device:R R9
U 1 1 5D4B22C0
P 1750 4150
F 0 "R9" V 1650 4050 50  0000 C CNN
F 1 "10K" V 1650 4250 50  0000 C CNN
F 2 "Resistors:R_0805_2012Metric_Pad1.15x1.40mm_HandSolder" V 1680 4150 50  0001 C CNN
F 3 "~" H 1750 4150 50  0001 C CNN
	1    1750 4150
	0    1    1    0   
$EndComp
$Comp
L Device:R R10
U 1 1 5D4B2853
P 1750 5150
F 0 "R10" V 1650 5050 50  0000 C CNN
F 1 "10K" V 1650 5250 50  0000 C CNN
F 2 "Resistors:R_0805_2012Metric_Pad1.15x1.40mm_HandSolder" V 1680 5150 50  0001 C CNN
F 3 "~" H 1750 5150 50  0001 C CNN
	1    1750 5150
	0    1    1    0   
$EndComp
$Comp
L power:GND #PWR011
U 1 1 5D4B2E2F
P 2000 5400
F 0 "#PWR011" H 2000 5150 50  0001 C CNN
F 1 "GND" H 2005 5227 50  0000 C CNN
F 2 "" H 2000 5400 50  0001 C CNN
F 3 "" H 2000 5400 50  0001 C CNN
	1    2000 5400
	1    0    0    -1  
$EndComp
Wire Wire Line
	1050 4150 1200 4150
Wire Wire Line
	1500 4150 1550 4150
Wire Wire Line
	1900 4150 2000 4150
Wire Wire Line
	2000 4150 2000 4400
Wire Wire Line
	1900 5150 2000 5150
Wire Wire Line
	2000 5150 2000 5400
Wire Wire Line
	1500 5150 1550 5150
Wire Wire Line
	1200 5150 1050 5150
Wire Wire Line
	1550 5150 1550 4900
Connection ~ 1550 5150
Wire Wire Line
	1550 5150 1600 5150
Wire Wire Line
	1550 4150 1550 3900
Wire Wire Line
	1550 3900 1750 3900
Connection ~ 1550 4150
Wire Wire Line
	1550 4150 1600 4150
Wire Wire Line
	1550 4900 1750 4900
Text Label 1750 3900 0    50   ~ 0
RDM_B_TX
Text Label 1750 4900 0    50   ~ 0
RDM_A_TX
$Comp
L rosetronics_v1:ESP32-POE_Socket U1
U 1 1 5D4E929C
P 4350 3150
F 0 "U1" H 3500 4400 50  0000 C CNN
F 1 "ESP32-POE_Socket" H 5050 2050 50  0000 C CNN
F 2 "rosetronics_v1:ESP32_POE_Shield" H 3650 2100 50  0001 C CNN
F 3 "http://espressif.com/sites/default/files/documentation/0a-esp8266ex_datasheet_en.pdf" H 4450 1850 50  0001 C CNN
	1    4350 3150
	1    0    0    -1  
$EndComp
$Comp
L rosetronics_v1:UEXT_Socket U5
U 1 1 5D4FCEC3
P 9500 5150
F 0 "U5" H 9300 5550 50  0000 C CNN
F 1 "UEXT_Socket (Display)" H 9450 4750 50  0000 C CNN
F 2 "Connector_Samtec_HLE_THT:Samtec_HLE-105-02-xx-DV-TE_2x05_P2.54mm_Horizontal" H 9300 4750 50  0001 C CNN
F 3 "https://www.olimex.com" H 9600 3850 50  0001 C CNN
	1    9500 5150
	1    0    0    -1  
$EndComp
$Sheet
S 9650 5950 850  300 
U 5D3B8885
F0 "Board Adapter" 50
F1 "rosetronics_universal_adapter.sch" 50
$EndSheet
$Comp
L rosetronics_v1:ESP32MiniKit_Socket U2
U 1 1 5D3BCC31
P 4350 6200
F 0 "U2" H 4350 7867 50  0000 C CNN
F 1 "ESP32MiniKit_Socket" H 4350 7776 50  0000 C CNN
F 2 "rosetronics_v1:ESP32_MiniKit_Shield" H 3850 4750 50  0001 C CNN
F 3 "https://www.bastelgarage.ch/esp32minikit-wemos" H 4450 4900 50  0001 C CNN
	1    4350 6200
	1    0    0    -1  
$EndComp
Text Notes 9750 6150 0    98   ~ 0
ADAPTER 
$Comp
L power:+5V #PWR017
U 1 1 5D3C4D61
P 3000 2200
F 0 "#PWR017" H 3000 2050 50  0001 C CNN
F 1 "+5V" H 3000 2350 50  0000 C CNN
F 2 "" H 3000 2200 50  0001 C CNN
F 3 "" H 3000 2200 50  0001 C CNN
	1    3000 2200
	1    0    0    -1  
$EndComp
$Comp
L power:+5V #PWR024
U 1 1 5D3C54ED
P 6600 6400
F 0 "#PWR024" H 6600 6250 50  0001 C CNN
F 1 "+5V" H 6615 6573 50  0000 C CNN
F 2 "" H 6600 6400 50  0001 C CNN
F 3 "" H 6600 6400 50  0001 C CNN
	1    6600 6400
	1    0    0    -1  
$EndComp
$Comp
L power:+3V3 #PWR049
U 1 1 5D3C6C65
P 10050 4050
F 0 "#PWR049" H 10050 3900 50  0001 C CNN
F 1 "+3V3" H 10050 4200 50  0000 C CNN
F 2 "" H 10050 4050 50  0001 C CNN
F 3 "" H 10050 4050 50  0001 C CNN
	1    10050 4050
	1    0    0    -1  
$EndComp
$Comp
L power:+3V3 #PWR016
U 1 1 5D3C7DE9
P 2850 2450
F 0 "#PWR016" H 2850 2300 50  0001 C CNN
F 1 "+3V3" H 2800 2600 50  0000 C CNN
F 2 "" H 2850 2450 50  0001 C CNN
F 3 "" H 2850 2450 50  0001 C CNN
	1    2850 2450
	1    0    0    -1  
$EndComp
Wire Wire Line
	3000 2200 3000 2900
Wire Wire Line
	3000 2900 3300 2900
Wire Wire Line
	3300 3000 2850 3000
$Comp
L power:+3V3 #PWR013
U 1 1 5D3DAA0C
P 2300 6400
F 0 "#PWR013" H 2300 6250 50  0001 C CNN
F 1 "+3V3" H 2250 6550 50  0000 C CNN
F 2 "" H 2300 6400 50  0001 C CNN
F 3 "" H 2300 6400 50  0001 C CNN
	1    2300 6400
	1    0    0    -1  
$EndComp
$Comp
L Device:R R22
U 1 1 5D3E1484
P 10050 4500
F 0 "R22" V 10125 4600 50  0000 C CNN
F 1 "2K2" V 10125 4350 50  0000 C CNN
F 2 "Resistors:R_0805_2012Metric_Pad1.15x1.40mm_HandSolder" V 9980 4500 50  0001 C CNN
F 3 "~" H 10050 4500 50  0001 C CNN
	1    10050 4500
	-1   0    0    1   
$EndComp
$Comp
L Device:R R23
U 1 1 5D3E25C3
P 10200 4850
F 0 "R23" V 10275 4950 50  0000 C CNN
F 1 "10K" V 10275 4700 50  0000 C CNN
F 2 "Resistors:R_0805_2012Metric_Pad1.15x1.40mm_HandSolder" V 10130 4850 50  0001 C CNN
F 3 "~" H 10200 4850 50  0001 C CNN
	1    10200 4850
	-1   0    0    1   
$EndComp
$Comp
L Device:R R24
U 1 1 5D3E3C94
P 10350 4550
F 0 "R24" V 10425 4650 50  0000 C CNN
F 1 "10K" V 10425 4400 50  0000 C CNN
F 2 "Resistors:R_0805_2012Metric_Pad1.15x1.40mm_HandSolder" V 10280 4550 50  0001 C CNN
F 3 "~" H 10350 4550 50  0001 C CNN
	1    10350 4550
	-1   0    0    1   
$EndComp
$Comp
L power:+3V3 #PWR042
U 1 1 5D3E53E9
P 9000 4050
F 0 "#PWR042" H 9000 3900 50  0001 C CNN
F 1 "+3V3" H 8900 4200 50  0000 C CNN
F 2 "" H 9000 4050 50  0001 C CNN
F 3 "" H 9000 4050 50  0001 C CNN
	1    9000 4050
	1    0    0    -1  
$EndComp
$Comp
L power:+3V3 #PWR043
U 1 1 5D3E5D24
P 9150 4050
F 0 "#PWR043" H 9150 3900 50  0001 C CNN
F 1 "+3V3" H 9200 4200 50  0000 C CNN
F 2 "" H 9150 4050 50  0001 C CNN
F 3 "" H 9150 4050 50  0001 C CNN
	1    9150 4050
	1    0    0    -1  
$EndComp
$Comp
L Device:R R20
U 1 1 5D3E602C
P 9000 4700
F 0 "R20" V 9100 4850 50  0000 C CNN
F 1 "2K2" V 9100 4500 50  0000 C CNN
F 2 "Resistors:R_0805_2012Metric_Pad1.15x1.40mm_HandSolder" V 8930 4700 50  0001 C CNN
F 3 "~" H 9000 4700 50  0001 C CNN
	1    9000 4700
	-1   0    0    1   
$EndComp
Wire Wire Line
	9200 5050 8800 5050
Wire Wire Line
	9200 5250 8800 5250
Wire Wire Line
	9200 5350 8800 5350
Wire Wire Line
	8800 5150 9000 5150
Wire Wire Line
	9200 4950 9150 4950
Wire Wire Line
	9150 4950 9150 4050
Wire Wire Line
	9000 5150 9000 4850
Connection ~ 9000 5150
Wire Wire Line
	9000 5150 9200 5150
Wire Wire Line
	9000 4550 9000 4050
$Comp
L power:GND #PWR046
U 1 1 5D436E0E
P 9850 4050
F 0 "#PWR046" H 9850 3800 50  0001 C CNN
F 1 "GND" H 9850 3900 50  0000 C CNN
F 2 "" H 9850 4050 50  0001 C CNN
F 3 "" H 9850 4050 50  0001 C CNN
	1    9850 4050
	-1   0    0    1   
$EndComp
Wire Wire Line
	9850 4050 9850 4950
Wire Wire Line
	9850 4950 9800 4950
Wire Wire Line
	9800 5050 10350 5050
Wire Wire Line
	10050 4350 10050 4200
Wire Wire Line
	10350 4400 10350 4200
Wire Wire Line
	10350 4200 10200 4200
Connection ~ 10050 4200
Wire Wire Line
	10050 4200 10050 4050
Wire Wire Line
	10200 4700 10200 4200
Connection ~ 10200 4200
Wire Wire Line
	10200 4200 10050 4200
Wire Wire Line
	9800 5150 10050 5150
Wire Wire Line
	10350 4700 10350 5050
Connection ~ 10350 5050
Wire Wire Line
	10350 5050 10450 5050
Wire Wire Line
	10050 4650 10050 5150
Connection ~ 10050 5150
Wire Wire Line
	10050 5150 10450 5150
Wire Wire Line
	9800 5250 10450 5250
Wire Wire Line
	9800 5350 10200 5350
Wire Wire Line
	10200 5000 10200 5350
Connection ~ 10200 5350
Wire Wire Line
	10200 5350 10450 5350
$Comp
L Regulator_Linear:LM2937xMP U4
U 1 1 5D59E7AA
P 7500 5550
F 0 "U4" H 7500 5792 50  0000 C CNN
F 1 "LM2937xMP" H 7500 5701 50  0000 C CNN
F 2 "Package_TO_SOT_SMD:SOT-223-3_TabPin2" H 7500 5775 50  0001 C CIN
F 3 "http://www.ti.com/lit/ds/symlink/lm2937.pdf" H 7500 5500 50  0001 C CNN
	1    7500 5550
	-1   0    0    -1  
$EndComp
$Comp
L Device:C C2
U 1 1 5D59F991
P 7050 5800
F 0 "C2" H 6900 5900 50  0000 L CNN
F 1 "10µF" H 6800 5700 50  0000 L CNN
F 2 "Capacitor_SMD:C_1206_3216Metric_Pad1.42x1.75mm_HandSolder" H 7088 5650 50  0001 C CNN
F 3 "~" H 7050 5800 50  0001 C CNN
	1    7050 5800
	1    0    0    -1  
$EndComp
$Comp
L Device:C C4
U 1 1 5D5A004F
P 8000 5800
F 0 "C4" H 7850 5900 50  0000 L CNN
F 1 "100µF" H 7750 5700 50  0000 L CNN
F 2 "Capacitor_SMD:CP_Elec_6.3x5.9" H 8038 5650 50  0001 C CNN
F 3 "~" H 8000 5800 50  0001 C CNN
	1    8000 5800
	1    0    0    -1  
$EndComp
$Comp
L power:GND #PWR07
U 1 1 5D5A0A3A
P 1450 7350
F 0 "#PWR07" H 1450 7100 50  0001 C CNN
F 1 "GND" V 1450 7100 50  0000 C CNN
F 2 "" H 1450 7350 50  0001 C CNN
F 3 "" H 1450 7350 50  0001 C CNN
	1    1450 7350
	1    0    0    -1  
$EndComp
$Comp
L power:GND #PWR033
U 1 1 5D5A0DFC
P 7500 6100
F 0 "#PWR033" H 7500 5850 50  0001 C CNN
F 1 "GND" H 7505 5927 50  0000 C CNN
F 2 "" H 7500 6100 50  0001 C CNN
F 3 "" H 7500 6100 50  0001 C CNN
	1    7500 6100
	1    0    0    -1  
$EndComp
$Comp
L power:GND #PWR038
U 1 1 5D5A0FDC
P 8000 6100
F 0 "#PWR038" H 8000 5850 50  0001 C CNN
F 1 "GND" H 8005 5927 50  0000 C CNN
F 2 "" H 8000 6100 50  0001 C CNN
F 3 "" H 8000 6100 50  0001 C CNN
	1    8000 6100
	1    0    0    -1  
$EndComp
$Comp
L power:+5V #PWR037
U 1 1 5D5A13CA
P 8000 5150
F 0 "#PWR037" H 8000 5000 50  0001 C CNN
F 1 "+5V" H 8015 5323 50  0000 C CNN
F 2 "" H 8000 5150 50  0001 C CNN
F 3 "" H 8000 5150 50  0001 C CNN
	1    8000 5150
	1    0    0    -1  
$EndComp
$Comp
L Device:Jumper_NC_Small JP3
U 1 1 5D5A1995
P 7050 5350
F 0 "JP3" H 7050 5450 50  0000 C CNN
F 1 "JUMPER_POWER" H 7050 5250 50  0001 C CNN
F 2 "Connector_PinHeader_2.54mm:PinHeader_1x02_P2.54mm_Vertical" H 7050 5350 50  0001 C CNN
F 3 "~" H 7050 5350 50  0001 C CNN
	1    7050 5350
	0    -1   -1   0   
$EndComp
$Comp
L power:+3V3 #PWR028
U 1 1 5D5A257D
P 7050 5150
F 0 "#PWR028" H 7050 5000 50  0001 C CNN
F 1 "+3V3" H 7100 5300 50  0000 C CNN
F 2 "" H 7050 5150 50  0001 C CNN
F 3 "" H 7050 5150 50  0001 C CNN
	1    7050 5150
	1    0    0    -1  
$EndComp
Wire Wire Line
	7050 5650 7050 5550
Connection ~ 7050 5550
Wire Wire Line
	7050 5550 7200 5550
Wire Wire Line
	7050 5950 7050 6100
Wire Wire Line
	7500 6100 7500 5850
Wire Wire Line
	7800 5550 8000 5550
Wire Wire Line
	8000 5550 8000 5650
Wire Wire Line
	8000 5150 8000 5550
Connection ~ 8000 5550
Wire Wire Line
	8000 5950 8000 6100
Wire Wire Line
	7050 5150 7050 5250
Wire Wire Line
	7050 5450 7050 5550
Wire Wire Line
	7050 5550 6800 5550
$Comp
L power:+3.3VA #PWR027
U 1 1 5D5F5F3D
P 6800 5150
F 0 "#PWR027" H 6800 5000 50  0001 C CNN
F 1 "+3.3VA" H 6750 5300 50  0000 C CNN
F 2 "" H 6800 5150 50  0001 C CNN
F 3 "" H 6800 5150 50  0001 C CNN
	1    6800 5150
	1    0    0    -1  
$EndComp
Wire Wire Line
	6800 5550 6800 5150
Wire Wire Line
	1150 6700 1250 6700
Wire Wire Line
	1150 6600 1250 6600
Wire Wire Line
	1150 6500 1250 6500
Wire Wire Line
	1150 6400 1250 6400
Wire Wire Line
	1150 6300 1250 6300
Wire Wire Line
	1150 6200 1250 6200
Wire Wire Line
	1150 6100 1250 6100
Wire Wire Line
	1150 6000 1250 6000
Wire Wire Line
	1150 5900 1250 5900
$Comp
L power:+3V3 #PWR08
U 1 1 5D50C832
P 1600 7350
F 0 "#PWR08" H 1600 7200 50  0001 C CNN
F 1 "+3V3" V 1600 7600 50  0000 C CNN
F 2 "" H 1600 7350 50  0001 C CNN
F 3 "" H 1600 7350 50  0001 C CNN
	1    1600 7350
	-1   0    0    1   
$EndComp
Wire Wire Line
	1450 7300 1450 7350
Wire Wire Line
	1150 7300 1450 7300
Wire Wire Line
	1450 7100 1450 7300
Wire Wire Line
	1150 7100 1450 7100
Connection ~ 1450 7300
Wire Wire Line
	1150 7200 1600 7200
Wire Wire Line
	1600 7000 1600 7200
Wire Wire Line
	1150 7000 1600 7000
Text Label 1250 5900 0    50   ~ 0
SPI_CS_A
Text Label 1250 6000 0    50   ~ 0
SPI_MOSI
Text Label 1250 6100 0    50   ~ 0
SPI_MISO
Text Label 1250 6200 0    50   ~ 0
SPI_SCK
Text Label 1250 6300 0    50   ~ 0
SPI_CS_B
Text Label 1250 6600 0    50   ~ 0
I2C_SCL
Text Label 1250 6700 0    50   ~ 0
I2C_SDA
$Comp
L Connector:Screw_Terminal_01x08 J10
U 1 1 5D473F48
P 10950 1850
F 0 "J10" H 11000 2300 50  0000 L CNN
F 1 "PIO RM3.5" H 10750 1350 50  0000 L CNN
F 2 "Connector_Wago:Wago_734-138_1x08_P3.50mm_Vertical" H 10950 1850 50  0001 C CNN
F 3 "~" H 10950 1850 50  0001 C CNN
	1    10950 1850
	1    0    0    -1  
$EndComp
Wire Wire Line
	10200 1550 10350 1550
Connection ~ 10350 1550
Wire Wire Line
	10350 1550 10750 1550
Wire Wire Line
	10750 1650 10350 1650
Connection ~ 10350 1650
Wire Wire Line
	10750 1750 10350 1750
Connection ~ 10350 1750
Wire Wire Line
	10350 1850 10750 1850
Connection ~ 10350 1850
Wire Wire Line
	10750 2050 10350 2050
Connection ~ 10350 2050
Wire Wire Line
	10350 2150 10750 2150
Connection ~ 10350 2150
Wire Wire Line
	10750 2250 10350 2250
Connection ~ 10350 2250
$Comp
L Connector:Conn_01x05_Male J4
U 1 1 5D535FE6
P 2800 1400
F 0 "J4" H 2750 1750 50  0000 C CNN
F 1 "EXT A" H 2750 1100 50  0000 C CNN
F 2 "Connector_JST:JST_XH_B5B-XH-A_1x05_P2.50mm_Vertical" H 2800 1400 50  0001 C CNN
F 3 "~" H 2800 1400 50  0001 C CNN
	1    2800 1400
	1    0    0    -1  
$EndComp
$Comp
L Connector:Conn_01x05_Male J5
U 1 1 5D53735F
P 4900 1400
F 0 "J5" H 4850 1750 50  0000 C CNN
F 1 "EXT B" H 4850 1100 50  0000 C CNN
F 2 "Connector_JST:JST_XH_B5B-XH-A_1x05_P2.50mm_Vertical" H 4900 1400 50  0001 C CNN
F 3 "~" H 4900 1400 50  0001 C CNN
	1    4900 1400
	1    0    0    -1  
$EndComp
Text Notes 7600 1550 0    50   ~ 0
MFRC522_SS|SDA\n
Text Notes 7600 1650 0    50   ~ 0
MFRC522_SCK\n
Text Notes 7600 1750 0    50   ~ 0
MFRC522_MOSI\n
Text Notes 7600 1850 0    50   ~ 0
MFRC522_MISO|SCL\n
Text Notes 7600 1950 0    50   ~ 0
MFRC522_IRQ\n
Text Notes 7600 2050 0    50   ~ 0
MFRC522_GND\n
Text Notes 7600 2150 0    50   ~ 0
MFRC522_RST\n
Text Notes 7600 2250 0    50   ~ 0
MFRC522_3V3\n
Text Notes 2900 1750 0    50   ~ 0
[PS 25/5O]\n
Text Notes 5000 1750 0    50   ~ 0
[PS 25/5O]\n
Text Notes 10700 2500 0    50   ~ 0
[AKL183-08]\n
Text Notes 10050 2500 0    50   ~ 0
[RND205-00139]\n
Text Notes 6850 2400 0    50   ~ 0
[PS 25/8O]\n
Text Notes 9900 5600 0    50   ~ 0
[WSL10-G]
Text Notes 650  7600 0    50   ~ 0
[D-SUB BU 15P]\n
Text Notes 850  4500 0    50   ~ 0
[PS 25/3O]\n
Text Notes 800  5500 0    50   ~ 0
[PS 25/3O]\n
Text Notes 8350 4300 0    50   ~ 0
[HEBL 21]
Wire Wire Line
	1150 6900 1450 6900
Wire Wire Line
	1450 6900 1450 7100
Connection ~ 1450 7100
Text Notes 2750 1400 2    50   ~ 0
EXT_A_GND\n
Text Notes 2750 1300 2    50   ~ 0
EXT_A_3V3\n
Text Notes 2750 1200 2    50   ~ 0
EXT_A_I2C_SDA\n
Text Notes 2750 1500 2    50   ~ 0
EXT_A_I2C_SCL\n
Text Notes 2750 1600 2    50   ~ 0
EXT_A_GPIO
Text Notes 4850 1400 2    50   ~ 0
EXT_B_GND\n
Text Notes 4850 1300 2    50   ~ 0
EXT_B_3V3\n
Text Notes 4850 1200 2    50   ~ 0
EXT_B_I2C_SDA\n
Text Notes 4850 1500 2    50   ~ 0
EXT_B_I2C_SCL\n
Text Notes 4850 1600 2    50   ~ 0
EXT_B_GPIO
Text Label 8800 5050 2    50   ~ 0
PORT_GPIO_A
Text Label 8800 5350 2    50   ~ 0
SPI_SCK
Text Label 10450 5350 0    50   ~ 0
SPI_CS_A
Text Label 10450 5250 0    50   ~ 0
SPI_MOSI
Text Label 8800 5250 2    50   ~ 0
SPI_MISO
Text Label 8800 5150 2    50   ~ 0
I2C_SCL
Text Label 10450 5150 0    50   ~ 0
I2C_SDA
Text Label 7000 1550 0    50   ~ 0
SPI_CS_B
Text Label 7000 1650 0    50   ~ 0
SPI_SCK
Text Label 7000 1750 0    50   ~ 0
SPI_MOSI
Text Label 7000 1850 0    50   ~ 0
SPI_MISO
$Comp
L power:+3V3 #PWR032
U 1 1 5D810E2D
P 7500 1500
F 0 "#PWR032" H 7500 1350 50  0001 C CNN
F 1 "+3V3" H 7450 1650 50  0000 C CNN
F 2 "" H 7500 1500 50  0001 C CNN
F 3 "" H 7500 1500 50  0001 C CNN
	1    7500 1500
	1    0    0    -1  
$EndComp
$Comp
L power:GND #PWR031
U 1 1 5D81150C
P 7450 2350
F 0 "#PWR031" H 7450 2100 50  0001 C CNN
F 1 "GND" H 7455 2177 50  0000 C CNN
F 2 "" H 7450 2350 50  0001 C CNN
F 3 "" H 7450 2350 50  0001 C CNN
	1    7450 2350
	1    0    0    -1  
$EndComp
Wire Wire Line
	7500 2250 7500 1500
Wire Wire Line
	6900 2250 7500 2250
Wire Wire Line
	7450 2050 7450 2350
Wire Wire Line
	6900 2050 7450 2050
NoConn ~ 7000 1950
Text Label 7000 2150 0    50   ~ 0
SLAVE_RST
$Comp
L power:GND #PWR029
U 1 1 5D8A4425
P 7050 6100
F 0 "#PWR029" H 7050 5850 50  0001 C CNN
F 1 "GND" H 7055 5927 50  0000 C CNN
F 2 "" H 7050 6100 50  0001 C CNN
F 3 "" H 7050 6100 50  0001 C CNN
	1    7050 6100
	1    0    0    -1  
$EndComp
Connection ~ 1600 7200
Wire Wire Line
	1600 7200 1600 7350
Wire Wire Line
	1150 6800 1750 6800
$Comp
L power:+5V #PWR09
U 1 1 5D50E20C
P 1750 7350
F 0 "#PWR09" H 1750 7200 50  0001 C CNN
F 1 "+5V" V 1750 7600 50  0000 C CNN
F 2 "" H 1750 7350 50  0001 C CNN
F 3 "" H 1750 7350 50  0001 C CNN
	1    1750 7350
	-1   0    0    1   
$EndComp
$Comp
L Device:Jumper_NC_Small JP2
U 1 1 5D8B7AAD
P 2850 2750
F 0 "JP2" H 3000 2700 50  0000 C CNN
F 1 "JUMPER_POWER" H 2850 2650 50  0001 C CNN
F 2 "Connector_PinHeader_2.54mm:PinHeader_1x02_P2.54mm_Vertical" H 2850 2750 50  0001 C CNN
F 3 "~" H 2850 2750 50  0001 C CNN
	1    2850 2750
	0    -1   -1   0   
$EndComp
Wire Wire Line
	2850 2450 2850 2650
Wire Wire Line
	2850 2850 2850 3000
$Comp
L Device:Jumper_NC_Small JP1
U 1 1 5D8CE5D5
P 2300 6600
F 0 "JP1" H 2300 6700 50  0000 C CNN
F 1 "JUMPER_POWER" H 2300 6500 50  0001 C CNN
F 2 "Connector_PinHeader_2.54mm:PinHeader_1x02_P2.54mm_Vertical" H 2300 6600 50  0001 C CNN
F 3 "~" H 2300 6600 50  0001 C CNN
	1    2300 6600
	0    -1   -1   0   
$EndComp
Wire Wire Line
	2300 6400 2300 6500
Wire Wire Line
	2300 6700 2300 6800
Wire Wire Line
	2300 6800 3300 6800
Wire Wire Line
	5400 6800 6600 6800
Wire Wire Line
	6600 6800 6600 6400
$Comp
L power:GND #PWR014
U 1 1 5D91CBFE
P 2700 2700
F 0 "#PWR014" H 2700 2450 50  0001 C CNN
F 1 "GND" H 2750 2550 50  0000 C CNN
F 2 "" H 2700 2700 50  0001 C CNN
F 3 "" H 2700 2700 50  0001 C CNN
	1    2700 2700
	-1   0    0    1   
$EndComp
Wire Wire Line
	2700 2700 2700 3100
Wire Wire Line
	2700 3100 3300 3100
$Comp
L power:GND #PWR015
U 1 1 5D961E1C
P 2700 4550
F 0 "#PWR015" H 2700 4300 50  0001 C CNN
F 1 "GND" H 2750 4400 50  0000 C CNN
F 2 "" H 2700 4550 50  0001 C CNN
F 3 "" H 2700 4550 50  0001 C CNN
	1    2700 4550
	-1   0    0    1   
$EndComp
$Comp
L power:GND #PWR022
U 1 1 5D963DB5
P 5850 4550
F 0 "#PWR022" H 5850 4300 50  0001 C CNN
F 1 "GND" H 5900 4400 50  0000 C CNN
F 2 "" H 5850 4550 50  0001 C CNN
F 3 "" H 5850 4550 50  0001 C CNN
	1    5850 4550
	-1   0    0    1   
$EndComp
Wire Wire Line
	5850 4550 5850 4950
Wire Wire Line
	5850 4950 5400 4950
Wire Wire Line
	2700 4550 2700 4950
Wire Wire Line
	2700 4950 3300 4950
$Comp
L power:GND #PWR023
U 1 1 5D97DA7C
P 6500 6100
F 0 "#PWR023" H 6500 5850 50  0001 C CNN
F 1 "GND" H 6500 5950 50  0000 C CNN
F 2 "" H 6500 6100 50  0001 C CNN
F 3 "" H 6500 6100 50  0001 C CNN
	1    6500 6100
	-1   0    0    1   
$EndComp
Wire Wire Line
	6500 6100 6500 6550
Wire Wire Line
	6500 6550 5400 6550
NoConn ~ 5400 7200
NoConn ~ 5400 7300
NoConn ~ 3300 7300
Text Label 5500 2900 0    50   ~ 0
RDM_B_TX
Text Label 5500 3100 0    50   ~ 0
RDM_A_TX
Text Label 10450 5050 0    50   ~ 0
PORT_GPIO_B
$Comp
L Device:R_Small R13
U 1 1 5DD9413D
P 3600 800
F 0 "R13" V 3500 750 50  0000 C CNN
F 1 "0R" V 3500 950 50  0000 C CNN
F 2 "Resistors:R_0805_2012Metric_Pad1.15x1.40mm_HandSolder" H 3600 800 50  0001 C CNN
F 3 "~" H 3600 800 50  0001 C CNN
	1    3600 800 
	0    1    1    0   
$EndComp
$Comp
L Device:R_Small R14
U 1 1 5DDA3C86
P 3600 900
F 0 "R14" V 3700 850 50  0000 C CNN
F 1 "0R" V 3700 1050 50  0000 C CNN
F 2 "Resistors:R_0805_2012Metric_Pad1.15x1.40mm_HandSolder" H 3600 900 50  0001 C CNN
F 3 "~" H 3600 900 50  0001 C CNN
	1    3600 900 
	0    1    1    0   
$EndComp
$Comp
L power:+3V3 #PWR018
U 1 1 5DDBE099
P 3100 1000
F 0 "#PWR018" H 3100 850 50  0001 C CNN
F 1 "+3V3" V 3100 1250 50  0000 C CNN
F 2 "" H 3100 1000 50  0001 C CNN
F 3 "" H 3100 1000 50  0001 C CNN
	1    3100 1000
	1    0    0    -1  
$EndComp
$Comp
L power:GND #PWR019
U 1 1 5DDD61E6
P 3250 1000
F 0 "#PWR019" H 3250 750 50  0001 C CNN
F 1 "GND" V 3250 750 50  0000 C CNN
F 2 "" H 3250 1000 50  0001 C CNN
F 3 "" H 3250 1000 50  0001 C CNN
	1    3250 1000
	-1   0    0    1   
$EndComp
Wire Wire Line
	3000 1300 3100 1300
Wire Wire Line
	3100 1300 3100 1000
Wire Wire Line
	3000 1400 3250 1400
Wire Wire Line
	3250 1400 3250 1000
Wire Wire Line
	3000 1200 3400 1200
Wire Wire Line
	3400 1200 3400 800 
Wire Wire Line
	3400 800  3500 800 
Wire Wire Line
	3400 1200 3550 1200
Connection ~ 3400 1200
Text Label 3900 800  0    50   ~ 0
I2C_SDA
$Comp
L Device:R_Small R15
U 1 1 5DEDF51B
P 5700 800
F 0 "R15" V 5600 750 50  0000 C CNN
F 1 "0R" V 5600 950 50  0000 C CNN
F 2 "Resistors:R_0805_2012Metric_Pad1.15x1.40mm_HandSolder" H 5700 800 50  0001 C CNN
F 3 "~" H 5700 800 50  0001 C CNN
	1    5700 800 
	0    1    1    0   
$EndComp
$Comp
L Device:R_Small R16
U 1 1 5DEDF521
P 5700 900
F 0 "R16" V 5775 850 50  0000 C CNN
F 1 "0R" V 5775 1050 50  0000 C CNN
F 2 "Resistors:R_0805_2012Metric_Pad1.15x1.40mm_HandSolder" H 5700 900 50  0001 C CNN
F 3 "~" H 5700 900 50  0001 C CNN
	1    5700 900 
	0    1    1    0   
$EndComp
Text Label 6000 900  0    50   ~ 0
I2C_SCL
$Comp
L power:+3V3 #PWR020
U 1 1 5DEDF528
P 5200 1000
F 0 "#PWR020" H 5200 850 50  0001 C CNN
F 1 "+3V3" V 5200 1250 50  0000 C CNN
F 2 "" H 5200 1000 50  0001 C CNN
F 3 "" H 5200 1000 50  0001 C CNN
	1    5200 1000
	1    0    0    -1  
$EndComp
$Comp
L power:GND #PWR021
U 1 1 5DEDF52E
P 5350 1000
F 0 "#PWR021" H 5350 750 50  0001 C CNN
F 1 "GND" V 5350 750 50  0000 C CNN
F 2 "" H 5350 1000 50  0001 C CNN
F 3 "" H 5350 1000 50  0001 C CNN
	1    5350 1000
	-1   0    0    1   
$EndComp
Wire Wire Line
	5100 1300 5200 1300
Wire Wire Line
	5200 1300 5200 1000
Wire Wire Line
	5100 1400 5350 1400
Wire Wire Line
	5350 1400 5350 1000
Wire Wire Line
	5100 1200 5500 1200
Wire Wire Line
	5500 1200 5500 800 
Wire Wire Line
	5500 800  5600 800 
Wire Wire Line
	5100 1500 5550 1500
Wire Wire Line
	5600 900  5550 900 
Wire Wire Line
	5550 900  5550 1500
Connection ~ 5550 1500
Wire Wire Line
	5550 1500 5650 1500
Wire Wire Line
	5500 1200 5650 1200
Connection ~ 5500 1200
Text Label 6000 800  0    50   ~ 0
I2C_SDA
Wire Wire Line
	5100 1600 5550 1600
Wire Wire Line
	5400 2900 5500 2900
Wire Wire Line
	5500 3100 5400 3100
Text Label 5500 3800 0    50   ~ 0
I2C_SDA
Text Label 5500 3500 0    50   ~ 0
I2C_SCL
Text Label 5500 3700 0    50   ~ 0
SPI_SCK
Text Label 3250 3500 2    50   ~ 0
SPI_MOSI
Text Label 3250 3800 2    50   ~ 0
SPI_CS_A
Wire Wire Line
	3250 3500 3300 3500
Wire Wire Line
	3250 3800 3300 3800
Text Label 3250 3700 2    50   ~ 0
PORT_GPIO_A
Wire Wire Line
	3300 3700 3250 3700
$Comp
L Connector:Conn_01x03_Male J8
U 1 1 5DF9EF46
P 8550 5900
F 0 "J8" H 8500 6100 50  0000 C CNN
F 1 "UART" H 8550 5700 50  0000 C CNN
F 2 "Connector_JST:JST_XH_B3B-XH-A_1x03_P2.50mm_Vertical" H 8550 5900 50  0001 C CNN
F 3 "~" H 8550 5900 50  0001 C CNN
	1    8550 5900
	1    0    0    -1  
$EndComp
Text Notes 8350 6200 0    50   ~ 0
[PS 25/3O]\n
$Comp
L power:GND #PWR041
U 1 1 5DFAEB95
P 8950 6100
F 0 "#PWR041" H 8950 5850 50  0001 C CNN
F 1 "GND" H 8955 5927 50  0000 C CNN
F 2 "" H 8950 6100 50  0001 C CNN
F 3 "" H 8950 6100 50  0001 C CNN
	1    8950 6100
	1    0    0    -1  
$EndComp
Text Label 3250 3600 2    50   ~ 0
UART_RX
Text Label 3250 3400 2    50   ~ 0
UART_TX
Wire Wire Line
	3300 3400 3250 3400
Wire Wire Line
	3300 3600 3250 3600
Text Label 8950 5800 0    50   ~ 0
UART_TX
Text Label 8950 5900 0    50   ~ 0
UART_RX
Wire Wire Line
	8750 6000 8950 6000
Wire Wire Line
	8950 6000 8950 6100
Wire Wire Line
	8750 5900 8950 5900
Wire Wire Line
	8750 5800 8950 5800
Wire Wire Line
	5400 3000 5500 3000
Text Label 5500 3300 0    50   ~ 0
PORT_GPIO_B
Text Label 5500 3600 0    50   ~ 0
SPI_MISO
Wire Wire Line
	5400 3500 5500 3500
Wire Wire Line
	5400 3600 5500 3600
Wire Wire Line
	5400 3700 5500 3700
Wire Wire Line
	5400 3800 5500 3800
Text Label 3250 3300 2    50   ~ 0
EXT_A_GPIO
Wire Wire Line
	5400 3400 5500 3400
Text Label 3550 1600 0    50   ~ 0
EXT_A_GPIO
Text Label 5500 3400 0    50   ~ 0
SPI_CS_B
Text Label 5900 1700 0    50   ~ 0
UART_RX
$Comp
L Device:R_Small R17
U 1 1 5E2EDE69
P 5700 1700
F 0 "R17" V 5775 1650 50  0000 C CNN
F 1 "0R" V 5775 1850 50  0000 C CNN
F 2 "Resistors:R_0805_2012Metric_Pad1.15x1.40mm_HandSolder" H 5700 1700 50  0001 C CNN
F 3 "~" H 5700 1700 50  0001 C CNN
	1    5700 1700
	0    1    1    0   
$EndComp
Wire Wire Line
	5600 1700 5550 1700
Wire Wire Line
	5550 1700 5550 1600
Connection ~ 5550 1600
Wire Wire Line
	5550 1600 5650 1600
Wire Wire Line
	3700 800  3900 800 
Wire Wire Line
	3000 1500 3450 1500
Wire Wire Line
	3500 900  3450 900 
Wire Wire Line
	3450 900  3450 1500
Connection ~ 3450 1500
Wire Wire Line
	3450 1500 3550 1500
Wire Wire Line
	3700 900  3900 900 
Wire Wire Line
	5800 800  6000 800 
Wire Wire Line
	5800 900  6000 900 
Wire Wire Line
	5800 1700 5900 1700
Text Label 5650 1600 0    50   ~ 0
EXT_B_GPIO
Text Label 3900 900  0    50   ~ 0
I2C_SCL
Wire Wire Line
	3000 1600 3550 1600
Text Label 3550 1200 0    50   ~ 0
EXT_I2C_SDA
Text Label 3550 1500 0    50   ~ 0
EXT_I2C_SCL
Text Label 5650 1200 0    50   ~ 0
EXT_I2C_SDA
Text Label 5650 1500 0    50   ~ 0
EXT_I2C_SCL
Text Label 3200 5450 2    50   ~ 0
RDM_B_TX
Text Label 3200 5700 2    50   ~ 0
RDM_A_TX
Text Label 3200 5950 2    50   ~ 0
PORT_GPIO_B
Text Label 5500 5700 0    50   ~ 0
SPI_CS_B
Text Label 5500 6300 0    50   ~ 0
I2C_SCL
Text Label 5500 7050 0    50   ~ 0
SPI_MISO
Text Label 3200 6450 2    50   ~ 0
SPI_SCK
Text Label 3200 7050 2    50   ~ 0
I2C_SDA
Wire Wire Line
	3200 5300 3300 5300
Wire Wire Line
	3200 5450 3300 5450
Wire Wire Line
	3200 5700 3300 5700
Wire Wire Line
	3200 5950 3300 5950
Wire Wire Line
	3200 6450 3300 6450
Wire Wire Line
	3200 7050 3300 7050
NoConn ~ 3300 6950
NoConn ~ 5400 6950
Wire Wire Line
	5400 5700 5500 5700
Wire Wire Line
	5500 6300 5400 6300
Wire Wire Line
	5400 7050 5500 7050
Text Label 5500 6450 0    50   ~ 0
EXT_A_GPIO
Text Label 5500 5050 0    50   ~ 0
UART_TX
Text Label 5500 6700 0    50   ~ 0
SPI_MOSI
Wire Wire Line
	5400 6450 5500 6450
Wire Wire Line
	5500 6700 5400 6700
Text Label 5500 5300 0    50   ~ 0
UART_RX
Text Label 5500 6200 0    50   ~ 0
PORT_GPIO_A
Text Label 3200 6550 2    50   ~ 0
SPI_CS_A
Wire Wire Line
	3200 6550 3300 6550
Wire Wire Line
	5500 6200 5400 6200
Wire Wire Line
	5500 5300 5400 5300
Wire Wire Line
	5400 5050 5500 5050
NoConn ~ 3300 6700
NoConn ~ 3300 7200
NoConn ~ 3300 5200
Text Label 3200 5800 2    50   ~ 0
EXT_I2C_SDA
Text Label 3200 6050 2    50   ~ 0
EXT_I2C_SCL
Text Label 5500 5550 0    50   ~ 0
RDM_B_TX
Text Label 5500 5800 0    50   ~ 0
RDM_A_TX
Text Label 3200 6300 2    50   ~ 0
EXT_B_GPIO
Text Label 5500 5950 0    50   ~ 0
SLAVE_RST
Wire Wire Line
	1750 6800 1750 7350
Wire Wire Line
	10350 1950 10750 1950
Wire Wire Line
	10350 1950 10100 1950
Connection ~ 10350 1950
Text Label 1250 6500 0    50   ~ 0
PORT_GPIO_B
Text Label 1250 6400 0    50   ~ 0
PORT_GPIO_A
Text Label 8150 2750 2    50   ~ 0
EXT_A_GPIO
Text Label 8850 2200 2    50   ~ 0
EXT_B_GPIO
$Comp
L power:PWR_FLAG #FLG0101
U 1 1 5EA80CA0
P 10500 2900
F 0 "#FLG0101" H 10500 2975 50  0001 C CNN
F 1 "PWR_FLAG" H 10500 3050 50  0000 C CNN
F 2 "" H 10500 2900 50  0001 C CNN
F 3 "~" H 10500 2900 50  0001 C CNN
	1    10500 2900
	1    0    0    -1  
$EndComp
$Comp
L power:GND #PWR0101
U 1 1 5EA81DC4
P 10950 2900
F 0 "#PWR0101" H 10950 2650 50  0001 C CNN
F 1 "GND" H 10950 2750 50  0000 C CNN
F 2 "" H 10950 2900 50  0001 C CNN
F 3 "" H 10950 2900 50  0001 C CNN
	1    10950 2900
	-1   0    0    1   
$EndComp
Wire Wire Line
	10500 2900 10500 2950
Wire Wire Line
	10500 2950 10950 2950
Wire Wire Line
	10950 2950 10950 2900
$Comp
L power:+3V3 #PWR0102
U 1 1 5EA9C20C
P 10950 3200
F 0 "#PWR0102" H 10950 3050 50  0001 C CNN
F 1 "+3V3" H 11000 3350 50  0000 C CNN
F 2 "" H 10950 3200 50  0001 C CNN
F 3 "" H 10950 3200 50  0001 C CNN
	1    10950 3200
	1    0    0    -1  
$EndComp
$Comp
L power:VDDA #PWR0103
U 1 1 5EAB5E0C
P 10950 3500
F 0 "#PWR0103" H 10950 3350 50  0001 C CNN
F 1 "VDDA" H 10950 3650 50  0000 C CNN
F 2 "" H 10950 3500 50  0001 C CNN
F 3 "" H 10950 3500 50  0001 C CNN
	1    10950 3500
	1    0    0    -1  
$EndComp
$Comp
L power:PWR_FLAG #FLG0102
U 1 1 5EAB67BD
P 10500 3200
F 0 "#FLG0102" H 10500 3275 50  0001 C CNN
F 1 "PWR_FLAG" H 10500 3350 50  0000 C CNN
F 2 "" H 10500 3200 50  0001 C CNN
F 3 "~" H 10500 3200 50  0001 C CNN
	1    10500 3200
	1    0    0    -1  
$EndComp
Wire Wire Line
	10950 3200 10950 3250
Wire Wire Line
	10950 3250 10500 3250
Wire Wire Line
	10500 3250 10500 3200
$Comp
L power:PWR_FLAG #FLG0103
U 1 1 5EAD0B52
P 10500 3500
F 0 "#FLG0103" H 10500 3575 50  0001 C CNN
F 1 "PWR_FLAG" H 10500 3650 50  0000 C CNN
F 2 "" H 10500 3500 50  0001 C CNN
F 3 "~" H 10500 3500 50  0001 C CNN
	1    10500 3500
	1    0    0    -1  
$EndComp
Wire Wire Line
	10500 3500 10500 3550
Wire Wire Line
	10500 3550 10950 3550
Wire Wire Line
	10950 3550 10950 3500
$Comp
L power:VDD #PWR050
U 1 1 5D3C44B9
P 10200 1000
F 0 "#PWR050" H 10200 850 50  0001 C CNN
F 1 "VDD" H 10217 1173 50  0000 C CNN
F 2 "" H 10200 1000 50  0001 C CNN
F 3 "" H 10200 1000 50  0001 C CNN
	1    10200 1000
	1    0    0    -1  
$EndComp
$Comp
L power:VDD #PWR0104
U 1 1 5EB060B9
P 10950 3800
F 0 "#PWR0104" H 10950 3650 50  0001 C CNN
F 1 "VDD" H 10967 3973 50  0000 C CNN
F 2 "" H 10950 3800 50  0001 C CNN
F 3 "" H 10950 3800 50  0001 C CNN
	1    10950 3800
	1    0    0    -1  
$EndComp
$Comp
L power:PWR_FLAG #FLG0104
U 1 1 5EB0665D
P 10500 3800
F 0 "#FLG0104" H 10500 3875 50  0001 C CNN
F 1 "PWR_FLAG" H 10500 3950 50  0000 C CNN
F 2 "" H 10500 3800 50  0001 C CNN
F 3 "~" H 10500 3800 50  0001 C CNN
	1    10500 3800
	1    0    0    -1  
$EndComp
Wire Wire Line
	10500 3800 10500 3850
Wire Wire Line
	10500 3850 10950 3850
Wire Wire Line
	10950 3850 10950 3800
Text Label 1300 2950 2    50   ~ 0
EXT_A_GPIO
Text Label 1300 3250 2    50   ~ 0
EXT_B_GPIO
Text Label 5500 3200 0    50   ~ 0
SWIN1
Text Label 5500 3000 0    50   ~ 0
SWIN2
Text Label 3200 6200 2    50   ~ 0
SWIN1
Text Label 3200 5300 2    50   ~ 0
SWIN2
$Comp
L Mechanical:MountingHole H2
U 1 1 5EB6DE0D
P 1000 1350
F 0 "H2" H 1100 1350 50  0000 L CNN
F 1 "MountingHole" H 1100 1305 50  0001 L CNN
F 2 "MountingHole:MountingHole_2.2mm_M2_Pad_Via" H 1000 1350 50  0001 C CNN
F 3 "~" H 1000 1350 50  0001 C CNN
	1    1000 1350
	1    0    0    -1  
$EndComp
$Comp
L Mechanical:MountingHole H4
U 1 1 5EB6DFEE
P 1400 1350
F 0 "H4" H 1500 1350 50  0000 L CNN
F 1 "MountingHole" H 1500 1305 50  0001 L CNN
F 2 "MountingHole:MountingHole_2.2mm_M2_Pad_Via" H 1400 1350 50  0001 C CNN
F 3 "~" H 1400 1350 50  0001 C CNN
	1    1400 1350
	1    0    0    -1  
$EndComp
$Comp
L Mechanical:MountingHole H3
U 1 1 5EB6E25B
P 1400 1000
F 0 "H3" H 1500 1000 50  0000 L CNN
F 1 "MountingHole" H 1500 955 50  0001 L CNN
F 2 "MountingHole:MountingHole_2.2mm_M2_Pad_Via" H 1400 1000 50  0001 C CNN
F 3 "~" H 1400 1000 50  0001 C CNN
	1    1400 1000
	1    0    0    -1  
$EndComp
$Comp
L Device:R_Small R21
U 1 1 5ECBE841
P 9150 2200
F 0 "R21" V 8954 2200 50  0000 C CNN
F 1 "100R" V 9045 2200 50  0000 C CNN
F 2 "Resistors:R_0805_2012Metric_Pad1.15x1.40mm_HandSolder" H 9150 2200 50  0001 C CNN
F 3 "~" H 9150 2200 50  0001 C CNN
	1    9150 2200
	0    1    1    0   
$EndComp
$Comp
L Device:Q_NMOS_GDS Q2
U 1 1 5D3A33BB
P 9550 2200
F 0 "Q2" H 9400 2400 50  0000 L CNN
F 1 "IRLZ44N" H 9700 1950 50  0000 L CNN
F 2 "Package_TO_SOT_THT:TO-220-3_Vertical" H 9750 2300 50  0001 C CNN
F 3 "~" H 9550 2200 50  0001 C CNN
	1    9550 2200
	1    0    0    -1  
$EndComp
$Comp
L Device:R_Small R30
U 1 1 5ECBF710
P 9450 2450
F 0 "R30" V 9350 2400 50  0000 C CNN
F 1 "22K" V 9550 2550 50  0000 C CNN
F 2 "Resistors:R_0805_2012Metric_Pad1.15x1.40mm_HandSolder" H 9450 2450 50  0001 C CNN
F 3 "~" H 9450 2450 50  0001 C CNN
	1    9450 2450
	0    1    1    0   
$EndComp
Wire Wire Line
	9250 2200 9300 2200
Wire Wire Line
	9300 2200 9300 2450
Wire Wire Line
	9300 2450 9350 2450
Connection ~ 9300 2200
Wire Wire Line
	9300 2200 9350 2200
Wire Wire Line
	9550 2450 9650 2450
Wire Wire Line
	9050 2200 8850 2200
$Comp
L Device:R_Small R19
U 1 1 5ED9239B
P 8750 3000
F 0 "R19" V 8650 2950 50  0000 C CNN
F 1 "22K" V 8850 3100 50  0000 C CNN
F 2 "Resistors:R_0805_2012Metric_Pad1.15x1.40mm_HandSolder" H 8750 3000 50  0001 C CNN
F 3 "~" H 8750 3000 50  0001 C CNN
	1    8750 3000
	0    1    1    0   
$EndComp
$Comp
L Device:R_Small R18
U 1 1 5ED9291A
P 8450 2750
F 0 "R18" V 8254 2750 50  0000 C CNN
F 1 "100R" V 8345 2750 50  0000 C CNN
F 2 "Resistors:R_0805_2012Metric_Pad1.15x1.40mm_HandSolder" H 8450 2750 50  0001 C CNN
F 3 "~" H 8450 2750 50  0001 C CNN
	1    8450 2750
	0    1    1    0   
$EndComp
Wire Wire Line
	8150 2750 8350 2750
Wire Wire Line
	8550 2750 8600 2750
Wire Wire Line
	8600 2750 8600 3000
Connection ~ 8600 2750
Wire Wire Line
	8600 2750 8650 2750
Wire Wire Line
	8600 3000 8650 3000
Wire Wire Line
	8850 3000 8950 3000
Wire Wire Line
	6850 3800 6650 3800
$Comp
L power:+5V #PWR025
U 1 1 5D45F684
P 6650 3300
F 0 "#PWR025" H 6650 3150 50  0001 C CNN
F 1 "+5V" H 6665 3473 50  0000 C CNN
F 2 "" H 6650 3300 50  0001 C CNN
F 3 "" H 6650 3300 50  0001 C CNN
	1    6650 3300
	1    0    0    -1  
$EndComp
Wire Wire Line
	6650 3300 6650 3800
Connection ~ 6650 3800
Wire Wire Line
	6650 3900 6650 3800
Wire Wire Line
	6650 4200 6650 4250
$Comp
L power:GND #PWR026
U 1 1 5D45EAC4
P 6650 4250
F 0 "#PWR026" H 6650 4000 50  0001 C CNN
F 1 "GND" H 6655 4077 50  0000 C CNN
F 2 "" H 6650 4250 50  0001 C CNN
F 3 "" H 6650 4250 50  0001 C CNN
	1    6650 4250
	1    0    0    -1  
$EndComp
$Comp
L Device:C C1
U 1 1 5D45E3E6
P 6650 4050
F 0 "C1" H 6500 4150 50  0000 L CNN
F 1 "10µF" H 6400 3950 50  0000 L CNN
F 2 "Capacitor_SMD:C_1206_3216Metric_Pad1.42x1.75mm_HandSolder" H 6688 3900 50  0001 C CNN
F 3 "~" H 6650 4050 50  0001 C CNN
	1    6650 4050
	1    0    0    -1  
$EndComp
Wire Wire Line
	1300 2250 1500 2250
Wire Wire Line
	1300 2600 1500 2600
Wire Wire Line
	3300 3300 3250 3300
Wire Wire Line
	5400 3200 5500 3200
Wire Wire Line
	5400 3300 5500 3300
NoConn ~ 3300 3200
NoConn ~ 5400 5200
NoConn ~ 5400 5450
NoConn ~ 5400 6050
Wire Wire Line
	5400 5550 5500 5550
Wire Wire Line
	5400 5800 5500 5800
Wire Wire Line
	5400 5950 5500 5950
NoConn ~ 3300 5550
Wire Wire Line
	3300 5800 3200 5800
Wire Wire Line
	3200 6050 3300 6050
Wire Wire Line
	3300 6200 3200 6200
Wire Wire Line
	3200 6300 3300 6300
Wire Wire Line
	7750 3300 7750 3450
$EndSCHEMATC
