EESchema Schematic File Version 4
EELAYER 30 0
EELAYER END
$Descr A4 11693 8268
encoding utf-8
Sheet 2 2
Title ""
Date ""
Rev ""
Comp ""
Comment1 ""
Comment2 ""
Comment3 ""
Comment4 ""
$EndDescr
$Comp
L Connector:DB15_Female J?
U 1 1 5D611691
P 6375 4175
AR Path="/5D611691" Ref="J?"  Part="1" 
AR Path="/5D3B8885/5D611691" Ref="J14"  Part="1" 
F 0 "J14" H 6475 3275 50  0000 C CNN
F 1 "PORT" H 6525 5025 50  0000 C CNN
F 2 "Connector_Dsub:DSUB-15_Male_Vertical_P2.77x2.84mm_MountingHoles" H 6375 4175 50  0001 C CNN
F 3 " ~" H 6375 4175 50  0001 C CNN
	1    6375 4175
	-1   0    0    1   
$EndComp
Wire Wire Line
	6675 4275 6875 4275
Wire Wire Line
	6675 4175 6875 4175
Wire Wire Line
	6675 4075 6875 4075
Wire Wire Line
	6675 3975 6875 3975
Wire Wire Line
	6675 3875 6875 3875
Wire Wire Line
	6675 3775 6875 3775
Wire Wire Line
	6675 3675 6875 3675
Wire Wire Line
	6675 3575 6875 3575
Wire Wire Line
	6675 3475 6875 3475
Wire Wire Line
	6975 4875 6975 5075
Wire Wire Line
	6675 4875 6975 4875
Wire Wire Line
	6975 4675 6975 4875
Wire Wire Line
	6675 4675 6975 4675
Connection ~ 6975 4875
Wire Wire Line
	7125 4775 7125 5125
Wire Wire Line
	6675 4775 7125 4775
Wire Wire Line
	7125 4575 7125 4625
Wire Wire Line
	6675 4575 7125 4575
Connection ~ 7125 4775
Wire Wire Line
	6675 4375 7275 4375
Text Label 6875 3475 0    50   ~ 0
ADP_SPI_CS_A
Text Label 6875 3575 0    50   ~ 0
ADP_SPI_MOSI
Text Label 6875 3675 0    50   ~ 0
ADP_SPI_MISO
Text Label 6875 3775 0    50   ~ 0
ADP_SPI_SCK
Text Label 6875 3975 0    50   ~ 0
ADP_PORT_GPIO_A
Text Label 6875 4075 0    50   ~ 0
ADP_PORT_GPIO_B
Text Label 6875 3875 0    50   ~ 0
ADP_SPI_CS_B
Text Notes 6125 5150 0    50   ~ 0
[D-SUB BU 15P]\n
$Comp
L rosetronics_v1:UEXT_Socket U?
U 1 1 5D617FBF
P 2475 2125
AR Path="/5D617FBF" Ref="U?"  Part="1" 
AR Path="/5D3B8885/5D617FBF" Ref="U6"  Part="1" 
F 0 "U6" H 2275 2525 50  0000 C CNN
F 1 "UEXT_Socket (Display)" H 2225 1725 50  0000 C CNN
F 2 "rosetronics_v1:UEXT" H 2275 1725 50  0001 C CNN
F 3 "https://www.olimex.com" H 2575 825 50  0001 C CNN
	1    2475 2125
	1    0    0    -1  
$EndComp
Wire Wire Line
	2175 2025 1975 2025
Wire Wire Line
	2175 2325 1975 2325
Wire Wire Line
	2175 1925 2125 1925
Wire Wire Line
	2125 1925 2125 1375
Wire Wire Line
	2825 1025 2825 1375
Wire Wire Line
	2825 1925 2775 1925
Wire Wire Line
	2775 2225 3025 2225
Wire Wire Line
	2775 2125 3025 2125
Wire Wire Line
	2775 2025 3025 2025
Wire Wire Line
	2775 2325 3025 2325
Wire Wire Line
	1975 2125 2175 2125
Wire Wire Line
	7275 4375 7275 5075
Wire Wire Line
	6675 4475 6975 4475
Wire Wire Line
	6975 4475 6975 4675
Connection ~ 6975 4675
$Comp
L power:+5VA #PWR059
U 1 1 5D6954C3
P 7275 5075
F 0 "#PWR059" H 7275 4925 50  0001 C CNN
F 1 "+5VA" V 7275 5325 50  0000 C CNN
F 2 "" H 7275 5075 50  0001 C CNN
F 3 "" H 7275 5075 50  0001 C CNN
	1    7275 5075
	-1   0    0    1   
$EndComp
$Comp
L power:+3.3VP #PWR016
U 1 1 5D697587
P 2125 1025
F 0 "#PWR016" H 2275 975 50  0001 C CNN
F 1 "+3.3VP" H 2145 1168 50  0000 C CNN
F 2 "" H 2125 1025 50  0001 C CNN
F 3 "" H 2125 1025 50  0001 C CNN
	1    2125 1025
	1    0    0    -1  
$EndComp
$Comp
L power:+3.3VP #PWR058
U 1 1 5D697885
P 7125 5125
F 0 "#PWR058" H 7275 5075 50  0001 C CNN
F 1 "+3.3VP" V 7125 5375 50  0000 C CNN
F 2 "" H 7125 5125 50  0001 C CNN
F 3 "" H 7125 5125 50  0001 C CNN
	1    7125 5125
	-1   0    0    1   
$EndComp
$Comp
L power:GNDD #PWR056
U 1 1 5D699E2A
P 6975 5075
F 0 "#PWR056" H 6975 4825 50  0001 C CNN
F 1 "GNDD" V 6975 4825 50  0000 C CNN
F 2 "" H 6975 5075 50  0001 C CNN
F 3 "" H 6975 5075 50  0001 C CNN
	1    6975 5075
	1    0    0    -1  
$EndComp
$Comp
L power:GNDD #PWR051
U 1 1 5D69A85D
P 2825 1025
F 0 "#PWR051" H 2825 775 50  0001 C CNN
F 1 "GNDD" H 2825 875 50  0000 C CNN
F 2 "" H 2825 1025 50  0001 C CNN
F 3 "" H 2825 1025 50  0001 C CNN
	1    2825 1025
	-1   0    0    1   
$EndComp
$Comp
L power:GNDD #PWR061
U 1 1 5D69B743
P 9275 2375
F 0 "#PWR061" H 9275 2125 50  0001 C CNN
F 1 "GNDD" V 9275 2125 50  0000 C CNN
F 2 "" H 9275 2375 50  0001 C CNN
F 3 "" H 9275 2375 50  0001 C CNN
	1    9275 2375
	1    0    0    -1  
$EndComp
$Comp
L Device:C_Small C12
U 1 1 5D69C22B
P 9525 1675
F 0 "C12" V 9475 1475 50  0000 L CNN
F 1 "470nF" V 9575 1725 50  0000 L CNN
F 2 "Capacitor_SMD:C_0805_2012Metric_Pad1.15x1.40mm_HandSolder" H 9525 1675 50  0001 C CNN
F 3 "~" H 9525 1675 50  0001 C CNN
	1    9525 1675
	1    0    0    -1  
$EndComp
$Comp
L Device:C_Small C10
U 1 1 5D69CEB8
P 9275 1675
F 0 "C10" V 9225 1475 50  0000 L CNN
F 1 "10µF" V 9325 1725 50  0000 L CNN
F 2 "Capacitor_SMD:C_0805_2012Metric_Pad1.15x1.40mm_HandSolder" H 9275 1675 50  0001 C CNN
F 3 "~" H 9275 1675 50  0001 C CNN
	1    9275 1675
	1    0    0    -1  
$EndComp
$Comp
L Device:C_Small C8
U 1 1 5D69D1E9
P 9025 1675
F 0 "C8" V 8975 1475 50  0000 L CNN
F 1 "100µF" V 9075 1725 50  0000 L CNN
F 2 "Capacitor_SMD:CP_Elec_6.3x5.9" H 9025 1675 50  0001 C CNN
F 3 "~" H 9025 1675 50  0001 C CNN
	1    9025 1675
	1    0    0    -1  
$EndComp
Wire Wire Line
	9025 1575 9025 1275
Wire Wire Line
	9025 1275 9275 1275
Wire Wire Line
	9275 1275 9275 1075
Wire Wire Line
	9275 1275 9275 1575
Connection ~ 9275 1275
Wire Wire Line
	9275 1275 9525 1275
Wire Wire Line
	9525 1275 9525 1575
Wire Wire Line
	9025 1775 9025 2075
Wire Wire Line
	9025 2075 9275 2075
Wire Wire Line
	9275 2075 9275 2375
Wire Wire Line
	9275 1775 9275 2075
Connection ~ 9275 2075
Wire Wire Line
	9525 1775 9525 2075
Wire Wire Line
	9525 2075 9275 2075
$Comp
L power:GNDD #PWR063
U 1 1 5D6A6A44
P 9275 4425
F 0 "#PWR063" H 9275 4175 50  0001 C CNN
F 1 "GNDD" V 9275 4175 50  0000 C CNN
F 2 "" H 9275 4425 50  0001 C CNN
F 3 "" H 9275 4425 50  0001 C CNN
	1    9275 4425
	1    0    0    -1  
$EndComp
$Comp
L Device:C_Small C13
U 1 1 5D6A6A4A
P 9525 3725
F 0 "C13" V 9475 3525 50  0000 L CNN
F 1 "470nF" V 9575 3775 50  0000 L CNN
F 2 "Capacitor_SMD:C_0805_2012Metric_Pad1.15x1.40mm_HandSolder" H 9525 3725 50  0001 C CNN
F 3 "~" H 9525 3725 50  0001 C CNN
	1    9525 3725
	1    0    0    -1  
$EndComp
$Comp
L Device:C_Small C11
U 1 1 5D6A6A50
P 9275 3725
F 0 "C11" V 9225 3525 50  0000 L CNN
F 1 "10µF" V 9325 3775 50  0000 L CNN
F 2 "Capacitor_SMD:C_0805_2012Metric_Pad1.15x1.40mm_HandSolder" H 9275 3725 50  0001 C CNN
F 3 "~" H 9275 3725 50  0001 C CNN
	1    9275 3725
	1    0    0    -1  
$EndComp
$Comp
L Device:C_Small C9
U 1 1 5D6A6A56
P 9025 3725
F 0 "C9" V 8975 3525 50  0000 L CNN
F 1 "100µF" V 9075 3775 50  0000 L CNN
F 2 "Capacitor_SMD:CP_Elec_6.3x5.9" H 9025 3725 50  0001 C CNN
F 3 "~" H 9025 3725 50  0001 C CNN
	1    9025 3725
	1    0    0    -1  
$EndComp
Wire Wire Line
	9025 3625 9025 3325
Wire Wire Line
	9025 3325 9275 3325
Wire Wire Line
	9275 3325 9275 3075
Wire Wire Line
	9275 3325 9275 3625
Connection ~ 9275 3325
Wire Wire Line
	9275 3325 9525 3325
Wire Wire Line
	9525 3325 9525 3625
Wire Wire Line
	9025 3825 9025 4125
Wire Wire Line
	9025 4125 9275 4125
Wire Wire Line
	9275 4125 9275 4425
Wire Wire Line
	9275 3825 9275 4125
Connection ~ 9275 4125
Wire Wire Line
	9525 3825 9525 4125
Wire Wire Line
	9525 4125 9275 4125
$Comp
L power:+3.3VP #PWR062
U 1 1 5D6A7A21
P 9275 3075
F 0 "#PWR062" H 9425 3025 50  0001 C CNN
F 1 "+3.3VP" H 9275 3175 50  0000 C CNN
F 2 "" H 9275 3075 50  0001 C CNN
F 3 "" H 9275 3075 50  0001 C CNN
	1    9275 3075
	1    0    0    -1  
$EndComp
$Comp
L Connector:Conn_01x08_Male J?
U 1 1 5D6B6785
P 1850 6350
AR Path="/5D6B6785" Ref="J?"  Part="1" 
AR Path="/5D3B8885/5D6B6785" Ref="J11"  Part="1" 
F 0 "J11" H 1958 6831 50  0000 C CNN
F 1 "MFRC522" H 1800 5850 50  0000 C CNN
F 2 "Connector_JST:JST_XH_B8B-XH-A_1x08_P2.50mm_Vertical" H 1850 6350 50  0001 C CNN
F 3 "~" H 1850 6350 50  0001 C CNN
	1    1850 6350
	1    0    0    -1  
$EndComp
Wire Wire Line
	2050 6050 2150 6050
Wire Wire Line
	2050 6150 2150 6150
Wire Wire Line
	2150 6250 2050 6250
Wire Wire Line
	2050 6350 2150 6350
Wire Wire Line
	2150 6450 2050 6450
Wire Wire Line
	2050 6650 2200 6650
Text Notes 1800 6050 2    50   ~ 0
MFRC522_SS|SDA\n
Text Notes 1800 6150 2    50   ~ 0
MFRC522_SCK\n
Text Notes 1800 6250 2    50   ~ 0
MFRC522_MOSI\n
Text Notes 1800 6350 2    50   ~ 0
MFRC522_MISO|SCL\n
Text Notes 1800 6450 2    50   ~ 0
MFRC522_IRQ\n
Text Notes 1800 6550 2    50   ~ 0
MFRC522_GND\n
Text Notes 1800 6650 2    50   ~ 0
MFRC522_RST\n
Text Notes 1800 6750 2    50   ~ 0
MFRC522_3V3\n
Text Notes 2000 6900 0    50   ~ 0
[PS 25/8O]\n
$Comp
L Device:C_Small C6
U 1 1 5D6D7182
P 2475 1375
F 0 "C6" V 2425 1175 50  0000 L CNN
F 1 "2.2µF" V 2525 1425 50  0000 L CNN
F 2 "Capacitor_SMD:C_0805_2012Metric_Pad1.15x1.40mm_HandSolder" H 2475 1375 50  0001 C CNN
F 3 "~" H 2475 1375 50  0001 C CNN
	1    2475 1375
	0    1    1    0   
$EndComp
$Comp
L Device:C_Small C5
U 1 1 5D6D7B38
P 4575 4350
F 0 "C5" V 4700 4300 50  0000 L CNN
F 1 "2.2µF" V 4450 4250 50  0000 L CNN
F 2 "Capacitor_SMD:C_0805_2012Metric_Pad1.15x1.40mm_HandSolder" H 4575 4350 50  0001 C CNN
F 3 "~" H 4575 4350 50  0001 C CNN
	1    4575 4350
	0    -1   -1   0   
$EndComp
Wire Wire Line
	2575 1375 2825 1375
Connection ~ 2825 1375
Wire Wire Line
	2825 1375 2825 1925
Wire Wire Line
	2375 1375 2125 1375
Connection ~ 2125 1375
Wire Wire Line
	2125 1375 2125 1025
$Comp
L Connector:Conn_01x03_Male J5
U 1 1 5D6E70BF
P 6225 1675
F 0 "J5" H 6333 1956 50  0000 C CNN
F 1 "EXT 5V" H 6225 1475 50  0000 C CNN
F 2 "Connector_JST:JST_XH_B3B-XH-A_1x03_P2.50mm_Vertical" H 6225 1675 50  0001 C CNN
F 3 "~" H 6225 1675 50  0001 C CNN
	1    6225 1675
	1    0    0    -1  
$EndComp
Text Notes 6175 1675 2    50   ~ 0
EXT_ADP_GPIO
Text Notes 6025 2000 0    50   ~ 0
[PS 25/3O]\n
$Comp
L Device:R_Small R13
U 1 1 5D6EAA83
P 6625 1325
F 0 "R13" V 6525 1225 50  0000 L CNN
F 1 "0R" V 6525 1375 50  0000 L CNN
F 2 "Resistors:R_0805_2012Metric_Pad1.15x1.40mm_HandSolder" H 6625 1325 50  0001 C CNN
F 3 "~" H 6625 1325 50  0001 C CNN
	1    6625 1325
	1    0    0    -1  
$EndComp
$Comp
L Device:R_Small R14
U 1 1 5D6EB498
P 6725 1325
F 0 "R14" V 6825 1225 50  0000 L CNN
F 1 "0R" V 6825 1375 50  0000 L CNN
F 2 "Resistors:R_0805_2012Metric_Pad1.15x1.40mm_HandSolder" H 6725 1325 50  0001 C CNN
F 3 "~" H 6725 1325 50  0001 C CNN
	1    6725 1325
	1    0    0    -1  
$EndComp
$Comp
L power:+3.3VP #PWR054
U 1 1 5D6EC1EE
P 6725 1125
F 0 "#PWR054" H 6875 1075 50  0001 C CNN
F 1 "+3.3VP" H 6925 1175 50  0000 C CNN
F 2 "" H 6725 1125 50  0001 C CNN
F 3 "" H 6725 1125 50  0001 C CNN
	1    6725 1125
	1    0    0    -1  
$EndComp
$Comp
L power:+5VA #PWR060
U 1 1 5D69B4BF
P 9275 1075
F 0 "#PWR060" H 9275 925 50  0001 C CNN
F 1 "+5VA" H 9275 1225 50  0000 C CNN
F 2 "" H 9275 1075 50  0001 C CNN
F 3 "" H 9275 1075 50  0001 C CNN
	1    9275 1075
	1    0    0    -1  
$EndComp
$Comp
L power:+5VA #PWR053
U 1 1 5D6EE180
P 6625 1125
F 0 "#PWR053" H 6625 975 50  0001 C CNN
F 1 "+5VA" H 6475 1175 50  0000 C CNN
F 2 "" H 6625 1125 50  0001 C CNN
F 3 "" H 6625 1125 50  0001 C CNN
	1    6625 1125
	1    0    0    -1  
$EndComp
Wire Wire Line
	6425 1575 6625 1575
Wire Wire Line
	6625 1575 6625 1425
Wire Wire Line
	6625 1575 6725 1575
Wire Wire Line
	6725 1575 6725 1425
Connection ~ 6625 1575
Wire Wire Line
	6725 1125 6725 1225
Wire Wire Line
	6625 1125 6625 1225
$Comp
L Device:C_Small C7
U 1 1 5D6F83F8
P 3350 7000
F 0 "C7" H 3400 6900 50  0000 L CNN
F 1 "2.2µF" H 3400 7100 50  0000 L CNN
F 2 "Capacitor_SMD:C_0805_2012Metric_Pad1.15x1.40mm_HandSolder" H 3350 7000 50  0001 C CNN
F 3 "~" H 3350 7000 50  0001 C CNN
	1    3350 7000
	-1   0    0    1   
$EndComp
$Comp
L power:GNDD #PWR014
U 1 1 5D6FB411
P 4375 4100
F 0 "#PWR014" H 4375 3850 50  0001 C CNN
F 1 "GNDD" V 4375 3875 50  0000 C CNN
F 2 "" H 4375 4100 50  0001 C CNN
F 3 "" H 4375 4100 50  0001 C CNN
	1    4375 4100
	-1   0    0    1   
$EndComp
$Comp
L power:GNDD #PWR041
U 1 1 5D6FCA3C
P 3350 7200
F 0 "#PWR041" H 3350 6950 50  0001 C CNN
F 1 "GNDD" H 3350 7050 50  0000 C CNN
F 2 "" H 3350 7200 50  0001 C CNN
F 3 "" H 3350 7200 50  0001 C CNN
	1    3350 7200
	1    0    0    -1  
$EndComp
$Comp
L power:+3.3VP #PWR017
U 1 1 5D6FD26A
P 4750 4075
F 0 "#PWR017" H 4900 4025 50  0001 C CNN
F 1 "+3.3VP" V 4750 4325 50  0000 C CNN
F 2 "" H 4750 4075 50  0001 C CNN
F 3 "" H 4750 4075 50  0001 C CNN
	1    4750 4075
	1    0    0    -1  
$EndComp
$Comp
L power:+3.3VP #PWR019
U 1 1 5D7230F0
P 3350 5750
F 0 "#PWR019" H 3500 5700 50  0001 C CNN
F 1 "+3.3VP" H 3350 5900 50  0000 C CNN
F 2 "" H 3350 5750 50  0001 C CNN
F 3 "" H 3350 5750 50  0001 C CNN
	1    3350 5750
	1    0    0    -1  
$EndComp
$Comp
L power:GNDD #PWR052
U 1 1 5D72348A
P 3600 7200
F 0 "#PWR052" H 3600 6950 50  0001 C CNN
F 1 "GNDD" H 3600 7050 50  0000 C CNN
F 2 "" H 3600 7200 50  0001 C CNN
F 3 "" H 3600 7200 50  0001 C CNN
	1    3600 7200
	1    0    0    -1  
$EndComp
Wire Wire Line
	3350 6750 3350 6900
Wire Wire Line
	2050 6750 3350 6750
Wire Wire Line
	3350 6750 3350 5750
Connection ~ 3350 6750
Wire Wire Line
	3350 7100 3350 7200
$Comp
L Device:R_Small R25
U 1 1 5D741181
P 6875 1675
F 0 "R25" V 6775 1575 50  0000 L CNN
F 1 "0R" V 6775 1725 50  0000 L CNN
F 2 "Resistors:R_0805_2012Metric_Pad1.15x1.40mm_HandSolder" H 6875 1675 50  0001 C CNN
F 3 "~" H 6875 1675 50  0001 C CNN
	1    6875 1675
	0    1    1    0   
$EndComp
$Comp
L Device:R_Small R26
U 1 1 5D746E76
P 7075 1875
F 0 "R26" V 6975 1775 50  0000 L CNN
F 1 "0R" V 6975 1925 50  0000 L CNN
F 2 "Resistors:R_0805_2012Metric_Pad1.15x1.40mm_HandSolder" H 7075 1875 50  0001 C CNN
F 3 "~" H 7075 1875 50  0001 C CNN
	1    7075 1875
	-1   0    0    1   
$EndComp
Wire Wire Line
	6425 1775 6725 1775
$Comp
L power:GNDD #PWR055
U 1 1 5D6F5A97
P 6725 2025
F 0 "#PWR055" H 6725 1775 50  0001 C CNN
F 1 "GNDD" H 6725 1875 50  0000 C CNN
F 2 "" H 6725 2025 50  0001 C CNN
F 3 "" H 6725 2025 50  0001 C CNN
	1    6725 2025
	1    0    0    -1  
$EndComp
Wire Wire Line
	6725 1775 6725 2025
$Comp
L power:GNDD #PWR057
U 1 1 5D74F68C
P 7075 2025
F 0 "#PWR057" H 7075 1775 50  0001 C CNN
F 1 "GNDD" H 7075 1875 50  0000 C CNN
F 2 "" H 7075 2025 50  0001 C CNN
F 3 "" H 7075 2025 50  0001 C CNN
	1    7075 2025
	1    0    0    -1  
$EndComp
Wire Wire Line
	6425 1675 6775 1675
Wire Wire Line
	6975 1675 7075 1675
Wire Wire Line
	7075 1675 7075 1775
Wire Wire Line
	7075 1975 7075 2025
Wire Wire Line
	7075 1675 7325 1675
Connection ~ 7075 1675
Text Label 3025 2225 0    50   ~ 0
ADP_SPI_MOSI
Text Label 1975 2325 2    50   ~ 0
ADP_SPI_SCK
Text Label 3025 2325 0    50   ~ 0
ADP_SPI_CS_A
Text Label 2150 6050 0    50   ~ 0
ADP_SPI_CS_B
Text Label 2150 6250 0    50   ~ 0
ADP_SPI_MOSI
Text Label 2150 6350 0    50   ~ 0
ADP_SPI_MISO
Text Label 2150 6150 0    50   ~ 0
ADP_SPI_SCK
NoConn ~ 2150 6450
Text Label 2550 6650 0    50   ~ 0
ADP_PORT_GPIO_B
Wire Wire Line
	2050 6550 3600 6550
Wire Wire Line
	3600 6550 3600 7200
$Comp
L Device:R_Small R2
U 1 1 5D7696E6
P 2300 6650
F 0 "R2" V 2250 6500 50  0000 C CNN
F 1 "0R" V 2250 6800 50  0000 C CNN
F 2 "Resistors:R_0805_2012Metric_Pad1.15x1.40mm_HandSolder" H 2300 6650 50  0001 C CNN
F 3 "~" H 2300 6650 50  0001 C CNN
	1    2300 6650
	0    1    1    0   
$EndComp
Wire Wire Line
	2400 6650 2550 6650
Text Label 7325 1675 0    50   ~ 0
ADP_PORT_GPIO_A
Text Label 1975 2125 2    50   ~ 0
ADP_I2C_SCL
Text Label 3025 2125 0    50   ~ 0
ADP_I2C_SDA
Text Label 3025 2025 0    50   ~ 0
ADP_PORT_GPIO_B
Text Notes 2675 2575 0    50   ~ 0
[WSL10-G]
Text Label 1975 2225 2    50   ~ 0
ADP_SPI_MISO
Wire Wire Line
	2175 2225 1975 2225
Text Label 1975 2025 2    50   ~ 0
ADP_PORT_GPIO_A
$Comp
L Connector:TestPoint TP1
U 1 1 5DD797E6
P 7475 4375
F 0 "TP1" V 7475 4563 50  0000 L CNN
F 1 "TestPoint" V 7520 4563 50  0001 L CNN
F 2 "Connector_Pin:Pin_D1.0mm_L10.0mm_LooseFit" H 7675 4375 50  0001 C CNN
F 3 "~" H 7675 4375 50  0001 C CNN
	1    7475 4375
	0    1    1    0   
$EndComp
$Comp
L Connector:TestPoint TP2
U 1 1 5DD7A538
P 7475 4625
F 0 "TP2" V 7475 4813 50  0000 L CNN
F 1 "TestPoint" V 7520 4813 50  0001 L CNN
F 2 "Connector_Pin:Pin_D1.0mm_L10.0mm_LooseFit" H 7675 4625 50  0001 C CNN
F 3 "~" H 7675 4625 50  0001 C CNN
	1    7475 4625
	0    1    1    0   
$EndComp
$Comp
L Connector:TestPoint TP3
U 1 1 5DD7A767
P 7475 4875
F 0 "TP3" V 7475 5063 50  0000 L CNN
F 1 "TestPoint" V 7520 5063 50  0001 L CNN
F 2 "Connector_Pin:Pin_D1.0mm_L10.0mm_LooseFit" H 7675 4875 50  0001 C CNN
F 3 "~" H 7675 4875 50  0001 C CNN
	1    7475 4875
	0    1    1    0   
$EndComp
Connection ~ 7275 4375
$Comp
L power:PWR_FLAG #FLG01
U 1 1 5EB22FD9
P 9025 5325
F 0 "#FLG01" H 9025 5400 50  0001 C CNN
F 1 "PWR_FLAG" H 9025 5498 50  0000 C CNN
F 2 "" H 9025 5325 50  0001 C CNN
F 3 "~" H 9025 5325 50  0001 C CNN
	1    9025 5325
	1    0    0    -1  
$EndComp
$Comp
L power:GNDD #PWR064
U 1 1 5EB2316B
P 9475 5325
F 0 "#PWR064" H 9475 5075 50  0001 C CNN
F 1 "GNDD" H 9475 5175 50  0000 C CNN
F 2 "" H 9475 5325 50  0001 C CNN
F 3 "" H 9475 5325 50  0001 C CNN
	1    9475 5325
	-1   0    0    1   
$EndComp
$Comp
L power:+5VA #PWR065
U 1 1 5EB23C90
P 9475 5675
F 0 "#PWR065" H 9475 5525 50  0001 C CNN
F 1 "+5VA" H 9475 5825 50  0000 C CNN
F 2 "" H 9475 5675 50  0001 C CNN
F 3 "" H 9475 5675 50  0001 C CNN
	1    9475 5675
	1    0    0    -1  
$EndComp
$Comp
L power:+3.3VP #PWR066
U 1 1 5EB24850
P 9475 6025
F 0 "#PWR066" H 9625 5975 50  0001 C CNN
F 1 "+3.3VP" H 9475 6175 50  0000 C CNN
F 2 "" H 9475 6025 50  0001 C CNN
F 3 "" H 9475 6025 50  0001 C CNN
	1    9475 6025
	1    0    0    -1  
$EndComp
$Comp
L power:PWR_FLAG #FLG02
U 1 1 5EB250BA
P 9025 5675
F 0 "#FLG02" H 9025 5750 50  0001 C CNN
F 1 "PWR_FLAG" H 9025 5848 50  0000 C CNN
F 2 "" H 9025 5675 50  0001 C CNN
F 3 "~" H 9025 5675 50  0001 C CNN
	1    9025 5675
	1    0    0    -1  
$EndComp
$Comp
L power:PWR_FLAG #FLG03
U 1 1 5EB254AE
P 9025 6025
F 0 "#FLG03" H 9025 6100 50  0001 C CNN
F 1 "PWR_FLAG" H 9025 6198 50  0000 C CNN
F 2 "" H 9025 6025 50  0001 C CNN
F 3 "~" H 9025 6025 50  0001 C CNN
	1    9025 6025
	1    0    0    -1  
$EndComp
Wire Wire Line
	9475 5325 9475 5375
Wire Wire Line
	9475 5375 9025 5375
Wire Wire Line
	9025 5375 9025 5325
Wire Wire Line
	9025 5675 9025 5725
Wire Wire Line
	9025 5725 9475 5725
Wire Wire Line
	9475 5725 9475 5675
Wire Wire Line
	9025 6025 9025 6075
Wire Wire Line
	9025 6075 9475 6075
Wire Wire Line
	9475 6075 9475 6025
$Comp
L Mechanical:MountingHole H?
U 1 1 5EB8C124
P 5300 6350
AR Path="/5EB8C124" Ref="H?"  Part="1" 
AR Path="/5D3B8885/5EB8C124" Ref="H5"  Part="1" 
F 0 "H5" H 5400 6350 50  0000 L CNN
F 1 "MountingHole" H 5400 6305 50  0001 L CNN
F 2 "MountingHole:MountingHole_2.2mm_M2_Pad_Via" H 5300 6350 50  0001 C CNN
F 3 "~" H 5300 6350 50  0001 C CNN
	1    5300 6350
	1    0    0    -1  
$EndComp
$Comp
L Mechanical:MountingHole H?
U 1 1 5EB8C130
P 5700 6700
AR Path="/5EB8C130" Ref="H?"  Part="1" 
AR Path="/5D3B8885/5EB8C130" Ref="H8"  Part="1" 
F 0 "H8" H 5800 6700 50  0000 L CNN
F 1 "MountingHole" H 5800 6655 50  0001 L CNN
F 2 "MountingHole:MountingHole_2.2mm_M2_Pad_Via" H 5700 6700 50  0001 C CNN
F 3 "~" H 5700 6700 50  0001 C CNN
	1    5700 6700
	1    0    0    -1  
$EndComp
Wire Wire Line
	7275 4375 7475 4375
Wire Wire Line
	7125 4625 7475 4625
Wire Wire Line
	6975 4875 7475 4875
Text Notes 1350 4725 0    50   ~ 0
[PS 25/5O]\n
Text Notes 1725 3800 2    50   ~ 0
EXT_GND\n
Text Notes 1725 3900 2    50   ~ 0
EXT_VCC
Text Notes 1725 4000 2    50   ~ 0
EXT_I2C_SDA\n
Text Notes 1725 4100 2    50   ~ 0
EXT_I2C_SCL\n
Text Notes 1725 4350 2    50   ~ 0
EXT_RX
Wire Wire Line
	1975 3800 2075 3800
Wire Wire Line
	2075 3800 2075 3600
Wire Wire Line
	1975 3900 2225 3900
$Comp
L Connector:Conn_01x08_Male J?
U 1 1 605D5B0F
P 1775 4100
AR Path="/605D5B0F" Ref="J?"  Part="1" 
AR Path="/5D3B8885/605D5B0F" Ref="J8"  Part="1" 
F 0 "J8" H 1883 4581 50  0000 C CNN
F 1 "EXT" H 1725 3600 50  0000 C CNN
F 2 "Connector_JST:JST_XH_B8B-XH-A_1x08_P2.50mm_Vertical" H 1775 4100 50  0001 C CNN
F 3 "~" H 1775 4100 50  0001 C CNN
	1    1775 4100
	1    0    0    -1  
$EndComp
Wire Wire Line
	1975 4500 2075 4500
Wire Wire Line
	2075 4500 2075 4750
Wire Wire Line
	1975 4200 2225 4200
Text Notes 1725 4450 2    50   ~ 0
EXT_TX
Wire Notes Line
	1750 3725 1750 4125
Wire Notes Line
	1750 4150 1125 4150
Wire Notes Line
	1225 4125 1225 3725
Wire Notes Line
	1130 3700 1755 3700
Text Notes 1200 4025 1    50   ~ 0
GROVE
Text Notes 1200 4500 1    50   ~ 0
NEXTION
Wire Notes Line
	1130 4600 1755 4600
Wire Notes Line
	1750 4175 1750 4575
Wire Notes Line
	1225 4575 1225 4175
Text Notes 1725 4550 2    50   ~ 0
EXT_GND\n
Text Notes 1725 4250 2    50   ~ 0
EXT_VCC2
Wire Wire Line
	2225 4200 2225 4500
Wire Wire Line
	2325 4500 2325 4200
Wire Wire Line
	2325 4200 2225 4200
Connection ~ 2225 4200
Wire Wire Line
	2225 4700 2225 4750
Wire Wire Line
	2325 4700 2325 4750
$Comp
L Device:Jumper_NC_Small JP?
U 1 1 605D5B74
P 2225 4600
AR Path="/605D5B74" Ref="JP?"  Part="1" 
AR Path="/5D3B8885/605D5B74" Ref="JP9"  Part="1" 
F 0 "JP9" H 2225 4700 50  0000 C CNN
F 1 "JUMPER_POWER" H 2225 4500 50  0001 C CNN
F 2 "Connector_PinHeader_2.54mm:PinHeader_1x02_P2.54mm_Vertical" H 2225 4600 50  0001 C CNN
F 3 "~" H 2225 4600 50  0001 C CNN
	1    2225 4600
	0    -1   -1   0   
$EndComp
$Comp
L Device:Jumper_NC_Small JP?
U 1 1 605D5B7A
P 2325 4600
AR Path="/605D5B7A" Ref="JP?"  Part="1" 
AR Path="/5D3B8885/605D5B7A" Ref="JP11"  Part="1" 
F 0 "JP11" H 2325 4525 50  0000 C CNN
F 1 "JUMPER_POWER" H 2325 4500 50  0001 C CNN
F 2 "Connector_PinHeader_2.54mm:PinHeader_1x02_P2.54mm_Vertical" H 2325 4600 50  0001 C CNN
F 3 "~" H 2325 4600 50  0001 C CNN
	1    2325 4600
	0    -1   -1   0   
$EndComp
$Comp
L power:GNDD #PWR068
U 1 1 605DCAB0
P 2075 3600
F 0 "#PWR068" H 2075 3350 50  0001 C CNN
F 1 "GNDD" V 2075 3350 50  0000 C CNN
F 2 "" H 2075 3600 50  0001 C CNN
F 3 "" H 2075 3600 50  0001 C CNN
	1    2075 3600
	-1   0    0    1   
$EndComp
$Comp
L power:+3.3VP #PWR070
U 1 1 605DD35E
P 2225 3600
F 0 "#PWR070" H 2375 3550 50  0001 C CNN
F 1 "+3.3VP" V 2225 3875 50  0000 C CNN
F 2 "" H 2225 3600 50  0001 C CNN
F 3 "" H 2225 3600 50  0001 C CNN
	1    2225 3600
	1    0    0    -1  
$EndComp
$Comp
L power:+3.3VP #PWR071
U 1 1 605DF549
P 2225 4750
F 0 "#PWR071" H 2375 4700 50  0001 C CNN
F 1 "+3.3VP" V 2225 5025 50  0000 C CNN
F 2 "" H 2225 4750 50  0001 C CNN
F 3 "" H 2225 4750 50  0001 C CNN
	1    2225 4750
	-1   0    0    1   
$EndComp
$Comp
L power:+5VA #PWR073
U 1 1 605E004C
P 2325 4750
F 0 "#PWR073" H 2325 4600 50  0001 C CNN
F 1 "+5VA" V 2325 4975 50  0000 C CNN
F 2 "" H 2325 4750 50  0001 C CNN
F 3 "" H 2325 4750 50  0001 C CNN
	1    2325 4750
	-1   0    0    1   
$EndComp
$Comp
L power:GNDD #PWR069
U 1 1 605E07D3
P 2075 4750
F 0 "#PWR069" H 2075 4500 50  0001 C CNN
F 1 "GNDD" V 2075 4500 50  0000 C CNN
F 2 "" H 2075 4750 50  0001 C CNN
F 3 "" H 2075 4750 50  0001 C CNN
	1    2075 4750
	1    0    0    -1  
$EndComp
$Comp
L power:+5VA #PWR074
U 1 1 605E849B
P 3950 4075
F 0 "#PWR074" H 3950 3925 50  0001 C CNN
F 1 "+5VA" V 3950 4300 50  0000 C CNN
F 2 "" H 3950 4075 50  0001 C CNN
F 3 "" H 3950 4075 50  0001 C CNN
	1    3950 4075
	1    0    0    -1  
$EndComp
$Comp
L Device:C_Small C14
U 1 1 605E95EB
P 4175 4350
F 0 "C14" V 4300 4300 50  0000 L CNN
F 1 "2.2µF" V 4050 4250 50  0000 L CNN
F 2 "Capacitor_SMD:C_0805_2012Metric_Pad1.15x1.40mm_HandSolder" H 4175 4350 50  0001 C CNN
F 3 "~" H 4175 4350 50  0001 C CNN
	1    4175 4350
	0    -1   -1   0   
$EndComp
Wire Wire Line
	4475 4350 4375 4350
Wire Wire Line
	4375 4100 4375 4350
Connection ~ 4375 4350
Wire Wire Line
	4375 4350 4275 4350
Wire Wire Line
	4675 4350 4750 4350
Wire Wire Line
	4750 4350 4750 4075
Wire Wire Line
	4075 4350 3950 4350
Wire Wire Line
	3950 4350 3950 4075
Wire Wire Line
	1975 4400 2675 4400
Wire Wire Line
	1975 4300 2675 4300
Wire Wire Line
	1975 4100 2675 4100
Wire Wire Line
	1975 4000 2675 4000
Text Label 6875 4275 0    50   ~ 0
ADP_I2C_SDA
Text Label 6875 4175 0    50   ~ 0
ADP_I2C_SCL
Text Label 2675 4000 0    50   ~ 0
ADP_I2C_SDA
Text Label 2675 4100 0    50   ~ 0
ADP_I2C_SCL
Wire Wire Line
	2225 3600 2225 3900
Text Label 2675 4400 0    50   ~ 0
ADP_SPI_MOSI
Text Label 2675 4300 0    50   ~ 0
ADP_SPI_MISO
Connection ~ 7125 4625
Wire Wire Line
	7125 4625 7125 4775
$Comp
L Mechanical:MountingHole H?
U 1 1 60792650
P 5775 6350
AR Path="/60792650" Ref="H?"  Part="1" 
AR Path="/5D3B8885/60792650" Ref="H7"  Part="1" 
F 0 "H7" H 5875 6350 50  0000 L CNN
F 1 "MountingHole" H 5875 6305 50  0001 L CNN
F 2 "MountingHole:MountingHole_2.2mm_M2_Pad_Via" H 5775 6350 50  0001 C CNN
F 3 "~" H 5775 6350 50  0001 C CNN
	1    5775 6350
	1    0    0    -1  
$EndComp
$Comp
L Mechanical:MountingHole H?
U 1 1 6079283F
P 5325 6775
AR Path="/6079283F" Ref="H?"  Part="1" 
AR Path="/5D3B8885/6079283F" Ref="H6"  Part="1" 
F 0 "H6" H 5425 6775 50  0000 L CNN
F 1 "MountingHole" H 5425 6730 50  0001 L CNN
F 2 "MountingHole:MountingHole_2.2mm_M2_Pad_Via" H 5325 6775 50  0001 C CNN
F 3 "~" H 5325 6775 50  0001 C CNN
	1    5325 6775
	1    0    0    -1  
$EndComp
$EndSCHEMATC
