EESchema Schematic File Version 4
LIBS:rosetronics_MiniKit-cache
EELAYER 29 0
EELAYER END
$Descr A4 11693 8268
encoding utf-8
Sheet 1 2
Title ""
Date ""
Rev ""
Comp ""
Comment1 ""
Comment2 ""
Comment3 ""
Comment4 ""
$EndDescr
$Comp
L Connector:DB15_Female J3
U 1 1 5D37066C
P 850 6600
F 0 "J3" H 950 5700 50  0000 C CNN
F 1 "PORT" H 1000 7450 50  0000 C CNN
F 2 "Connector_Dsub:DSUB-15_Male_Vertical_P2.77x2.84mm_MountingHoles" H 850 6600 50  0001 C CNN
F 3 " ~" H 850 6600 50  0001 C CNN
	1    850  6600
	-1   0    0    1   
$EndComp
$Comp
L Connector:Conn_01x08_Male J6
U 1 1 5D41CBD3
P 6600 1350
F 0 "J6" H 6708 1831 50  0000 C CNN
F 1 "MFRC522" H 6550 850 50  0000 C CNN
F 2 "Connector_JST:JST_XH_B8B-XH-A_1x08_P2.50mm_Vertical" H 6600 1350 50  0001 C CNN
F 3 "~" H 6600 1350 50  0001 C CNN
	1    6600 1350
	1    0    0    -1  
$EndComp
Wire Wire Line
	6800 1050 6900 1050
Wire Wire Line
	6800 1150 6900 1150
Wire Wire Line
	6900 1250 6800 1250
Wire Wire Line
	6800 1350 6900 1350
Wire Wire Line
	6900 1450 6800 1450
Wire Wire Line
	6800 1650 6900 1650
$Comp
L Regulator_Linear:L7805 U3
U 1 1 5D430F31
P 5150 6750
F 0 "U3" H 5050 6900 50  0000 C CNN
F 1 "L7805" H 5000 6500 50  0000 C CNN
F 2 "Package_TO_SOT_THT:TO-220-3_Vertical" H 5175 6600 50  0001 L CIN
F 3 "http://www.st.com/content/ccc/resource/technical/document/datasheet/41/4f/b3/b0/12/d4/47/88/CD00000444.pdf/files/CD00000444.pdf/jcr:content/translations/en.CD00000444.pdf" H 5150 6700 50  0001 C CNN
	1    5150 6750
	-1   0    0    -1  
$EndComp
$Comp
L Device:Jumper_NC_Small JP4
U 1 1 5D40D7FD
P 10050 1300
F 0 "JP4" H 10050 1400 50  0000 C CNN
F 1 "JUMPER_POWER" H 10050 1200 50  0001 C CNN
F 2 "Connector_PinHeader_2.54mm:PinHeader_1x02_P2.54mm_Vertical" H 10050 1300 50  0001 C CNN
F 3 "~" H 10050 1300 50  0001 C CNN
	1    10050 1300
	1    0    0    -1  
$EndComp
Wire Wire Line
	10050 2250 10050 3100
Connection ~ 10050 2250
Wire Wire Line
	10050 2150 10050 2250
Wire Wire Line
	10350 2250 10050 2250
$Comp
L power:VDDA #PWR039
U 1 1 5D4096CF
P 8950 1000
F 0 "#PWR039" H 8950 850 50  0001 C CNN
F 1 "VDDA" H 8967 1173 50  0000 C CNN
F 2 "" H 8950 1000 50  0001 C CNN
F 3 "" H 8950 1000 50  0001 C CNN
	1    8950 1000
	1    0    0    -1  
$EndComp
$Comp
L power:VDDA #PWR044
U 1 1 5D409491
P 9650 1000
F 0 "#PWR044" H 9650 850 50  0001 C CNN
F 1 "VDDA" H 9667 1173 50  0000 C CNN
F 2 "" H 9650 1000 50  0001 C CNN
F 3 "" H 9650 1000 50  0001 C CNN
	1    9650 1000
	1    0    0    -1  
$EndComp
$Comp
L power:VDDA #PWR047
U 1 1 5D408BDF
P 9900 1000
F 0 "#PWR047" H 9900 850 50  0001 C CNN
F 1 "VDDA" H 9917 1173 50  0000 C CNN
F 2 "" H 9900 1000 50  0001 C CNN
F 3 "" H 9900 1000 50  0001 C CNN
	1    9900 1000
	1    0    0    -1  
$EndComp
$Comp
L Connector:Screw_Terminal_01x08 J9
U 1 1 5D40639E
P 10550 1850
F 0 "J9" H 10600 2300 50  0000 L CNN
F 1 "PIO RM3.81" H 10150 1350 50  0000 L CNN
F 2 "Connector_Phoenix_MC:PhoenixContact_MCV_1,5_8-G-3.81_1x08_P3.81mm_Vertical" H 10550 1850 50  0001 C CNN
F 3 "~" H 10550 1850 50  0001 C CNN
	1    10550 1850
	1    0    0    -1  
$EndComp
Text Label 1950 2750 0    50   ~ 0
SWIN2
Connection ~ 2300 2600
Text Label 1950 2400 0    50   ~ 0
SWIN1
Connection ~ 8950 1850
Connection ~ 2300 2950
Wire Wire Line
	1850 2600 1900 2600
Connection ~ 1850 2600
Wire Wire Line
	1850 2750 1950 2750
Wire Wire Line
	1850 2600 1850 2750
Wire Wire Line
	1850 2250 1900 2250
Connection ~ 1850 2250
Wire Wire Line
	1850 2400 1950 2400
Wire Wire Line
	1850 2250 1850 2400
Wire Wire Line
	1800 2250 1850 2250
Wire Wire Line
	1800 2600 1850 2600
Wire Wire Line
	2300 2600 2300 2950
Wire Wire Line
	2200 2600 2300 2600
Wire Wire Line
	2300 2250 2300 2600
Wire Wire Line
	2200 2250 2300 2250
$Comp
L Device:R R12
U 1 1 5D3DE377
P 2050 2600
F 0 "R12" V 1950 2500 50  0000 C CNN
F 1 "3K3" V 1950 2700 50  0000 C CNN
F 2 "Resistors:R_0805_2012Metric_Pad1.15x1.40mm_HandSolder" V 1980 2600 50  0001 C CNN
F 3 "~" H 2050 2600 50  0001 C CNN
	1    2050 2600
	0    1    1    0   
$EndComp
$Comp
L Device:R R8
U 1 1 5D3DE1C9
P 1650 2600
F 0 "R8" V 1550 2500 50  0000 C CNN
F 1 "22K" V 1550 2700 50  0000 C CNN
F 2 "Resistors:R_0805_2012Metric_Pad1.15x1.40mm_HandSolder" V 1580 2600 50  0001 C CNN
F 3 "~" H 1650 2600 50  0001 C CNN
	1    1650 2600
	0    1    1    0   
$EndComp
$Comp
L Device:R R11
U 1 1 5D3DD7DC
P 2050 2250
F 0 "R11" V 1950 2150 50  0000 C CNN
F 1 "3K3" V 1950 2350 50  0000 C CNN
F 2 "Resistors:R_0805_2012Metric_Pad1.15x1.40mm_HandSolder" V 1980 2250 50  0001 C CNN
F 3 "~" H 2050 2250 50  0001 C CNN
	1    2050 2250
	0    1    1    0   
$EndComp
Text Label 1300 2600 2    50   ~ 0
SWITCH2
Text Label 1300 2250 2    50   ~ 0
SWITCH1
$Comp
L Device:R R7
U 1 1 5D3DC99B
P 1650 2250
F 0 "R7" V 1550 2150 50  0000 C CNN
F 1 "22K" V 1550 2350 50  0000 C CNN
F 2 "Resistors:R_0805_2012Metric_Pad1.15x1.40mm_HandSolder" V 1580 2250 50  0001 C CNN
F 3 "~" H 1650 2250 50  0001 C CNN
	1    1650 2250
	0    1    1    0   
$EndComp
Wire Wire Line
	1400 3250 1300 3250
Wire Wire Line
	1400 2950 1300 2950
Wire Wire Line
	1700 2950 1800 2950
Wire Wire Line
	1800 3250 1700 3250
Wire Wire Line
	2300 3250 2300 3350
Connection ~ 2300 3250
Wire Wire Line
	2100 3250 2300 3250
Wire Wire Line
	2300 2950 2300 3250
Wire Wire Line
	2100 2950 2300 2950
$Comp
L Device:R R5
U 1 1 5D3D38F4
P 1550 2950
F 0 "R5" V 1450 2850 50  0000 C CNN
F 1 "4K7" V 1450 3050 50  0000 C CNN
F 2 "Resistors:R_0805_2012Metric_Pad1.15x1.40mm_HandSolder" V 1480 2950 50  0001 C CNN
F 3 "~" H 1550 2950 50  0001 C CNN
	1    1550 2950
	0    1    1    0   
$EndComp
$Comp
L Device:R R6
U 1 1 5D3D33D7
P 1550 3250
F 0 "R6" V 1450 3150 50  0000 C CNN
F 1 "4K7" V 1450 3350 50  0000 C CNN
F 2 "Resistors:R_0805_2012Metric_Pad1.15x1.40mm_HandSolder" V 1480 3250 50  0001 C CNN
F 3 "~" H 1550 3250 50  0001 C CNN
	1    1550 3250
	0    1    1    0   
$EndComp
$Comp
L Device:LED D2
U 1 1 5D3D0F54
P 1950 3250
F 0 "D2" H 2050 3150 50  0000 C CNN
F 1 "LED" H 1900 3350 50  0000 C CNN
F 2 "Diode_SMD:D_0805_2012Metric_Pad1.15x1.40mm_HandSolder" H 1950 3250 50  0001 C CNN
F 3 "~" H 1950 3250 50  0001 C CNN
	1    1950 3250
	-1   0    0    1   
$EndComp
$Comp
L Device:LED D1
U 1 1 5D3CF47F
P 1950 2950
F 0 "D1" H 2050 2850 50  0000 C CNN
F 1 "LED" H 1900 3050 50  0000 C CNN
F 2 "Diode_SMD:D_0805_2012Metric_Pad1.15x1.40mm_HandSolder" H 1950 2950 50  0001 C CNN
F 3 "~" H 1950 2950 50  0001 C CNN
	1    1950 2950
	-1   0    0    1   
$EndComp
Wire Wire Line
	10350 2150 10050 2150
Wire Wire Line
	10350 2050 10100 2050
Text Label 10100 2050 2    50   ~ 0
SWITCH2
Text Label 10100 1950 2    50   ~ 0
SWITCH1
Wire Wire Line
	8950 3000 8950 3100
Connection ~ 8950 3000
Wire Wire Line
	9650 2450 9650 3100
Connection ~ 9650 2450
Wire Wire Line
	8950 2950 8950 3000
Wire Wire Line
	9650 2400 9650 2450
Wire Wire Line
	8950 1000 8950 1350
Wire Wire Line
	9650 1000 9650 1150
Wire Wire Line
	9650 1450 9650 1750
$Comp
L Device:Q_NMOS_GDS Q1
U 1 1 5D3A1122
P 8850 2750
F 0 "Q1" H 8700 2950 50  0000 L CNN
F 1 "IRLZ44N" H 9000 2500 50  0000 L CNN
F 2 "Package_TO_SOT_THT:TO-220-3_Vertical" H 9050 2850 50  0001 C CNN
F 3 "~" H 8850 2750 50  0001 C CNN
	1    8850 2750
	1    0    0    -1  
$EndComp
Wire Wire Line
	8950 1850 8950 2550
Wire Wire Line
	10350 1850 8950 1850
Wire Wire Line
	8950 1650 8950 1850
Connection ~ 9650 1750
Wire Wire Line
	9650 1750 9650 2000
Wire Wire Line
	10350 1750 9650 1750
Wire Wire Line
	10350 1650 9900 1650
$Comp
L Device:D D4
U 1 1 5D3B7FB9
P 8950 1500
F 0 "D4" V 8850 1350 50  0000 L CNN
F 1 "1N4004" V 9050 1200 50  0000 L CNN
F 2 "Diode_SMD:D_SMA-SMB_Universal_Handsoldering" H 8950 1500 50  0001 C CNN
F 3 "~" H 8950 1500 50  0001 C CNN
	1    8950 1500
	0    1    1    0   
$EndComp
$Comp
L Device:D D5
U 1 1 5D3B5919
P 9650 1300
F 0 "D5" V 9550 1150 50  0000 L CNN
F 1 "1N4004" V 9750 1000 50  0000 L CNN
F 2 "Diode_SMD:D_SMA-SMB_Universal_Handsoldering" H 9650 1300 50  0001 C CNN
F 3 "~" H 9650 1300 50  0001 C CNN
	1    9650 1300
	0    1    1    0   
$EndComp
$Comp
L Connector:Barrel_Jack J7
U 1 1 5D36FECB
P 6350 6850
F 0 "J7" H 6250 7100 50  0000 C CNN
F 1 "PWR_Jack" H 6400 6600 50  0000 C CNN
F 2 "Connector_JST:JST_XH_B2B-XH-A_1x02_P2.50mm_Vertical" H 6400 6810 50  0001 C CNN
F 3 "~" H 6400 6810 50  0001 C CNN
	1    6350 6850
	-1   0    0    -1  
$EndComp
$Comp
L power:GND #PWR048
U 1 1 5D4437AE
P 10050 3100
F 0 "#PWR048" H 10050 2850 50  0001 C CNN
F 1 "GND" H 10055 2927 50  0000 C CNN
F 2 "" H 10050 3100 50  0001 C CNN
F 3 "" H 10050 3100 50  0001 C CNN
	1    10050 3100
	1    0    0    -1  
$EndComp
$Comp
L power:GND #PWR045
U 1 1 5D443A7D
P 9650 3100
F 0 "#PWR045" H 9650 2850 50  0001 C CNN
F 1 "GND" H 9655 2927 50  0000 C CNN
F 2 "" H 9650 3100 50  0001 C CNN
F 3 "" H 9650 3100 50  0001 C CNN
	1    9650 3100
	1    0    0    -1  
$EndComp
$Comp
L power:GND #PWR040
U 1 1 5D443D73
P 8950 3100
F 0 "#PWR040" H 8950 2850 50  0001 C CNN
F 1 "GND" H 8955 2927 50  0000 C CNN
F 2 "" H 8950 3100 50  0001 C CNN
F 3 "" H 8950 3100 50  0001 C CNN
	1    8950 3100
	1    0    0    -1  
$EndComp
$Comp
L power:GND #PWR012
U 1 1 5D44429E
P 2300 3350
F 0 "#PWR012" H 2300 3100 50  0001 C CNN
F 1 "GND" H 2305 3177 50  0000 C CNN
F 2 "" H 2300 3350 50  0001 C CNN
F 3 "" H 2300 3350 50  0001 C CNN
	1    2300 3350
	1    0    0    -1  
$EndComp
$Comp
L power:GND #PWR036
U 1 1 5D444780
P 6000 7200
F 0 "#PWR036" H 6000 6950 50  0001 C CNN
F 1 "GND" H 6005 7027 50  0000 C CNN
F 2 "" H 6000 7200 50  0001 C CNN
F 3 "" H 6000 7200 50  0001 C CNN
	1    6000 7200
	1    0    0    -1  
$EndComp
Wire Wire Line
	6050 6950 6000 6950
Wire Wire Line
	6000 6950 6000 7200
$Comp
L power:GND #PWR030
U 1 1 5D447C09
P 5150 7200
F 0 "#PWR030" H 5150 6950 50  0001 C CNN
F 1 "GND" H 5155 7027 50  0000 C CNN
F 2 "" H 5150 7200 50  0001 C CNN
F 3 "" H 5150 7200 50  0001 C CNN
	1    5150 7200
	1    0    0    -1  
$EndComp
Wire Wire Line
	5150 7050 5150 7200
$Comp
L Device:C C3
U 1 1 5D449BCD
P 5600 7000
F 0 "C3" H 5715 7046 50  0000 L CNN
F 1 "100µF" H 5715 6955 50  0000 L CNN
F 2 "Capacitor_SMD:CP_Elec_6.3x5.9" H 5638 6850 50  0001 C CNN
F 3 "~" H 5600 7000 50  0001 C CNN
	1    5600 7000
	1    0    0    -1  
$EndComp
$Comp
L power:GND #PWR034
U 1 1 5D4507B0
P 5600 7200
F 0 "#PWR034" H 5600 6950 50  0001 C CNN
F 1 "GND" H 5605 7027 50  0000 C CNN
F 2 "" H 5600 7200 50  0001 C CNN
F 3 "" H 5600 7200 50  0001 C CNN
	1    5600 7200
	1    0    0    -1  
$EndComp
Wire Wire Line
	5600 6850 5600 6750
Connection ~ 5600 6750
Wire Wire Line
	5600 6750 5450 6750
Wire Wire Line
	5600 7150 5600 7200
Wire Wire Line
	5600 6750 5750 6750
$Comp
L power:VDD #PWR035
U 1 1 5D43D6A7
P 5750 6250
F 0 "#PWR035" H 5750 6100 50  0001 C CNN
F 1 "VDD" H 5767 6423 50  0000 C CNN
F 2 "" H 5750 6250 50  0001 C CNN
F 3 "" H 5750 6250 50  0001 C CNN
	1    5750 6250
	1    0    0    -1  
$EndComp
$Comp
L Device:D D3
U 1 1 5D4574AE
P 5750 6550
F 0 "D3" V 5704 6629 50  0000 L CNN
F 1 "1N4004" V 5795 6629 50  0000 L CNN
F 2 "Diode_SMD:D_SMA-SMB_Universal_Handsoldering" H 5750 6550 50  0001 C CNN
F 3 "~" H 5750 6550 50  0001 C CNN
	1    5750 6550
	0    -1   -1   0   
$EndComp
Wire Wire Line
	5750 6700 5750 6750
Connection ~ 5750 6750
Wire Wire Line
	5750 6750 6050 6750
Wire Wire Line
	10200 1550 10200 1300
Wire Wire Line
	9900 1000 9900 1300
Wire Wire Line
	10150 1300 10200 1300
Connection ~ 10200 1300
Wire Wire Line
	10200 1300 10200 1000
Wire Wire Line
	9950 1300 9900 1300
Connection ~ 9900 1300
Wire Wire Line
	9900 1300 9900 1650
$Comp
L Connector:Conn_01x03_Male J1
U 1 1 5D48D439
P 850 4150
F 0 "J1" H 800 4350 50  0000 C CNN
F 1 "RDM6300_B" H 950 3950 50  0000 C CNN
F 2 "Connector_JST:JST_XH_B3B-XH-A_1x03_P2.50mm_Vertical" H 850 4150 50  0001 C CNN
F 3 "~" H 850 4150 50  0001 C CNN
	1    850  4150
	1    0    0    -1  
$EndComp
$Comp
L Connector:Conn_01x03_Male J2
U 1 1 5D48DFD1
P 850 5150
F 0 "J2" H 800 5350 50  0000 C CNN
F 1 "RDM6300_A" H 950 4950 50  0000 C CNN
F 2 "Connector_JST:JST_XH_B3B-XH-A_1x03_P2.50mm_Vertical" H 850 5150 50  0001 C CNN
F 3 "~" H 850 5150 50  0001 C CNN
	1    850  5150
	1    0    0    -1  
$EndComp
$Comp
L power:GND #PWR06
U 1 1 5D48F1EF
P 1400 5400
F 0 "#PWR06" H 1400 5150 50  0001 C CNN
F 1 "GND" H 1405 5227 50  0000 C CNN
F 2 "" H 1400 5400 50  0001 C CNN
F 3 "" H 1400 5400 50  0001 C CNN
	1    1400 5400
	1    0    0    -1  
$EndComp
$Comp
L power:+5V #PWR02
U 1 1 5D49007D
P 1150 3950
F 0 "#PWR02" H 1150 3800 50  0001 C CNN
F 1 "+5V" H 1165 4123 50  0000 C CNN
F 2 "" H 1150 3950 50  0001 C CNN
F 3 "" H 1150 3950 50  0001 C CNN
	1    1150 3950
	1    0    0    -1  
$EndComp
$Comp
L power:GND #PWR05
U 1 1 5D491355
P 1400 4400
F 0 "#PWR05" H 1400 4150 50  0001 C CNN
F 1 "GND" H 1405 4227 50  0000 C CNN
F 2 "" H 1400 4400 50  0001 C CNN
F 3 "" H 1400 4400 50  0001 C CNN
	1    1400 4400
	1    0    0    -1  
$EndComp
Wire Wire Line
	1050 4050 1150 4050
Wire Wire Line
	1150 4050 1150 3950
Wire Wire Line
	1050 4250 1400 4250
Wire Wire Line
	1400 4250 1400 4400
$Comp
L power:+5V #PWR03
U 1 1 5D499708
P 1150 4950
F 0 "#PWR03" H 1150 4800 50  0001 C CNN
F 1 "+5V" H 1165 5123 50  0000 C CNN
F 2 "" H 1150 4950 50  0001 C CNN
F 3 "" H 1150 4950 50  0001 C CNN
	1    1150 4950
	1    0    0    -1  
$EndComp
Wire Wire Line
	1050 5250 1400 5250
Wire Wire Line
	1400 5250 1400 5400
Wire Wire Line
	1050 5050 1150 5050
Wire Wire Line
	1150 5050 1150 4950
$Comp
L Device:R R4
U 1 1 5D4A4FAD
P 1350 5150
F 0 "R4" V 1250 5050 50  0000 C CNN
F 1 "10K" V 1250 5250 50  0000 C CNN
F 2 "Resistors:R_0805_2012Metric_Pad1.15x1.40mm_HandSolder" V 1280 5150 50  0001 C CNN
F 3 "~" H 1350 5150 50  0001 C CNN
	1    1350 5150
	0    1    1    0   
$EndComp
$Comp
L Device:R R3
U 1 1 5D4B18F7
P 1350 4150
F 0 "R3" V 1250 4050 50  0000 C CNN
F 1 "10K" V 1250 4250 50  0000 C CNN
F 2 "Resistors:R_0805_2012Metric_Pad1.15x1.40mm_HandSolder" V 1280 4150 50  0001 C CNN
F 3 "~" H 1350 4150 50  0001 C CNN
	1    1350 4150
	0    1    1    0   
$EndComp
$Comp
L power:GND #PWR010
U 1 1 5D4B1D8F
P 2000 4400
F 0 "#PWR010" H 2000 4150 50  0001 C CNN
F 1 "GND" H 2005 4227 50  0000 C CNN
F 2 "" H 2000 4400 50  0001 C CNN
F 3 "" H 2000 4400 50  0001 C CNN
	1    2000 4400
	1    0    0    -1  
$EndComp
$Comp
L Device:R R9
U 1 1 5D4B22C0
P 1750 4150
F 0 "R9" V 1650 4050 50  0000 C CNN
F 1 "10K" V 1650 4250 50  0000 C CNN
F 2 "Resistors:R_0805_2012Metric_Pad1.15x1.40mm_HandSolder" V 1680 4150 50  0001 C CNN
F 3 "~" H 1750 4150 50  0001 C CNN
	1    1750 4150
	0    1    1    0   
$EndComp
$Comp
L Device:R R10
U 1 1 5D4B2853
P 1750 5150
F 0 "R10" V 1650 5050 50  0000 C CNN
F 1 "10K" V 1650 5250 50  0000 C CNN
F 2 "Resistors:R_0805_2012Metric_Pad1.15x1.40mm_HandSolder" V 1680 5150 50  0001 C CNN
F 3 "~" H 1750 5150 50  0001 C CNN
	1    1750 5150
	0    1    1    0   
$EndComp
$Comp
L power:GND #PWR011
U 1 1 5D4B2E2F
P 2000 5400
F 0 "#PWR011" H 2000 5150 50  0001 C CNN
F 1 "GND" H 2005 5227 50  0000 C CNN
F 2 "" H 2000 5400 50  0001 C CNN
F 3 "" H 2000 5400 50  0001 C CNN
	1    2000 5400
	1    0    0    -1  
$EndComp
Wire Wire Line
	1050 4150 1200 4150
Wire Wire Line
	1500 4150 1550 4150
Wire Wire Line
	1900 4150 2000 4150
Wire Wire Line
	2000 4150 2000 4400
Wire Wire Line
	1900 5150 2000 5150
Wire Wire Line
	2000 5150 2000 5400
Wire Wire Line
	1500 5150 1550 5150
Wire Wire Line
	1200 5150 1050 5150
Wire Wire Line
	1550 5150 1550 4900
Connection ~ 1550 5150
Wire Wire Line
	1550 5150 1600 5150
Wire Wire Line
	1550 4150 1550 3900
Wire Wire Line
	1550 3900 1750 3900
Connection ~ 1550 4150
Wire Wire Line
	1550 4150 1600 4150
Wire Wire Line
	1550 4900 1750 4900
Text Label 1750 3900 0    50   ~ 0
RDM_B_TX
Text Label 1750 4900 0    50   ~ 0
RDM_A_TX
$Comp
L rosetronics_v1:UEXT_Socket U5
U 1 1 5D4FCEC3
P 8400 5050
F 0 "U5" H 8200 5450 50  0000 C CNN
F 1 "UEXT_Socket (Display)" H 8350 4650 50  0000 C CNN
F 2 "Connector_Samtec_HLE_THT:Samtec_HLE-105-02-xx-DV-TE_2x05_P2.54mm_Horizontal" H 8200 4650 50  0001 C CNN
F 3 "https://www.olimex.com" H 8500 3750 50  0001 C CNN
	1    8400 5050
	1    0    0    -1  
$EndComp
$Sheet
S 8000 5900 850  300 
U 5D3B8885
F0 "Board Adapter" 50
F1 "rosetronics_MiniKit_adapter.sch" 50
$EndSheet
$Comp
L rosetronics_v1:ESP32MiniKit_Socket U2
U 1 1 5D3BCC31
P 4650 4200
F 0 "U2" H 4650 5867 50  0000 C CNN
F 1 "ESP32MiniKit_Socket" H 4650 5776 50  0000 C CNN
F 2 "rosetronics_v1:ESP32_MiniKit_Shield" H 4150 2750 50  0001 C CNN
F 3 "https://www.bastelgarage.ch/esp32minikit-wemos" H 4750 2900 50  0001 C CNN
	1    4650 4200
	1    0    0    -1  
$EndComp
Text Notes 8100 6100 0    98   ~ 0
ADAPTER 
$Comp
L power:+5V #PWR024
U 1 1 5D3C54ED
P 6600 4400
F 0 "#PWR024" H 6600 4250 50  0001 C CNN
F 1 "+5V" H 6615 4573 50  0000 C CNN
F 2 "" H 6600 4400 50  0001 C CNN
F 3 "" H 6600 4400 50  0001 C CNN
	1    6600 4400
	1    0    0    -1  
$EndComp
$Comp
L power:+3V3 #PWR049
U 1 1 5D3C6C65
P 8950 3950
F 0 "#PWR049" H 8950 3800 50  0001 C CNN
F 1 "+3V3" H 8950 4100 50  0000 C CNN
F 2 "" H 8950 3950 50  0001 C CNN
F 3 "" H 8950 3950 50  0001 C CNN
	1    8950 3950
	1    0    0    -1  
$EndComp
$Comp
L power:+3V3 #PWR013
U 1 1 5D3DAA0C
P 2850 4400
F 0 "#PWR013" H 2850 4250 50  0001 C CNN
F 1 "+3V3" H 2800 4550 50  0000 C CNN
F 2 "" H 2850 4400 50  0001 C CNN
F 3 "" H 2850 4400 50  0001 C CNN
	1    2850 4400
	1    0    0    -1  
$EndComp
$Comp
L Device:R R22
U 1 1 5D3E1484
P 8950 4400
F 0 "R22" V 9025 4500 50  0000 C CNN
F 1 "2K2" V 9025 4250 50  0000 C CNN
F 2 "Resistors:R_0805_2012Metric_Pad1.15x1.40mm_HandSolder" V 8880 4400 50  0001 C CNN
F 3 "~" H 8950 4400 50  0001 C CNN
	1    8950 4400
	-1   0    0    1   
$EndComp
$Comp
L Device:R R23
U 1 1 5D3E25C3
P 9100 4750
F 0 "R23" V 9175 4850 50  0000 C CNN
F 1 "10K" V 9175 4600 50  0000 C CNN
F 2 "Resistors:R_0805_2012Metric_Pad1.15x1.40mm_HandSolder" V 9030 4750 50  0001 C CNN
F 3 "~" H 9100 4750 50  0001 C CNN
	1    9100 4750
	-1   0    0    1   
$EndComp
$Comp
L Device:R R24
U 1 1 5D3E3C94
P 9250 4450
F 0 "R24" V 9325 4550 50  0000 C CNN
F 1 "10K" V 9325 4300 50  0000 C CNN
F 2 "Resistors:R_0805_2012Metric_Pad1.15x1.40mm_HandSolder" V 9180 4450 50  0001 C CNN
F 3 "~" H 9250 4450 50  0001 C CNN
	1    9250 4450
	-1   0    0    1   
$EndComp
$Comp
L power:+3V3 #PWR042
U 1 1 5D3E53E9
P 7900 3950
F 0 "#PWR042" H 7900 3800 50  0001 C CNN
F 1 "+3V3" H 7800 4100 50  0000 C CNN
F 2 "" H 7900 3950 50  0001 C CNN
F 3 "" H 7900 3950 50  0001 C CNN
	1    7900 3950
	1    0    0    -1  
$EndComp
$Comp
L power:+3V3 #PWR043
U 1 1 5D3E5D24
P 8050 3950
F 0 "#PWR043" H 8050 3800 50  0001 C CNN
F 1 "+3V3" H 8100 4100 50  0000 C CNN
F 2 "" H 8050 3950 50  0001 C CNN
F 3 "" H 8050 3950 50  0001 C CNN
	1    8050 3950
	1    0    0    -1  
$EndComp
$Comp
L Device:R R20
U 1 1 5D3E602C
P 7900 4600
F 0 "R20" V 7975 4725 50  0000 C CNN
F 1 "2K2" V 7975 4450 50  0000 C CNN
F 2 "Resistors:R_0805_2012Metric_Pad1.15x1.40mm_HandSolder" V 7830 4600 50  0001 C CNN
F 3 "~" H 7900 4600 50  0001 C CNN
	1    7900 4600
	-1   0    0    1   
$EndComp
Wire Wire Line
	8100 4950 7700 4950
Wire Wire Line
	8100 5150 7700 5150
Wire Wire Line
	8100 5250 7700 5250
Wire Wire Line
	7700 5050 7900 5050
Wire Wire Line
	8100 4850 8050 4850
Wire Wire Line
	8050 4850 8050 3950
Wire Wire Line
	7900 5050 7900 4750
Connection ~ 7900 5050
Wire Wire Line
	7900 5050 8100 5050
Wire Wire Line
	7900 4450 7900 3950
$Comp
L power:GND #PWR046
U 1 1 5D436E0E
P 8750 3950
F 0 "#PWR046" H 8750 3700 50  0001 C CNN
F 1 "GND" H 8750 3800 50  0000 C CNN
F 2 "" H 8750 3950 50  0001 C CNN
F 3 "" H 8750 3950 50  0001 C CNN
	1    8750 3950
	-1   0    0    1   
$EndComp
Wire Wire Line
	8750 3950 8750 4850
Wire Wire Line
	8750 4850 8700 4850
Wire Wire Line
	8700 4950 9250 4950
Wire Wire Line
	8950 4250 8950 4100
Wire Wire Line
	9250 4300 9250 4100
Wire Wire Line
	9250 4100 9100 4100
Connection ~ 8950 4100
Wire Wire Line
	8950 4100 8950 3950
Wire Wire Line
	9100 4600 9100 4100
Connection ~ 9100 4100
Wire Wire Line
	9100 4100 8950 4100
Wire Wire Line
	8700 5050 8950 5050
Wire Wire Line
	9250 4600 9250 4950
Connection ~ 9250 4950
Wire Wire Line
	9250 4950 9350 4950
Wire Wire Line
	8950 4550 8950 5050
Connection ~ 8950 5050
Wire Wire Line
	8950 5050 9350 5050
Wire Wire Line
	8700 5150 9350 5150
Wire Wire Line
	8700 5250 9100 5250
Wire Wire Line
	9100 4900 9100 5250
Connection ~ 9100 5250
Wire Wire Line
	9100 5250 9350 5250
$Comp
L Regulator_Linear:LM2937xMP U4
U 1 1 5D59E7AA
P 3350 6650
F 0 "U4" H 3350 6892 50  0000 C CNN
F 1 "LM2937xMP" H 3350 6801 50  0000 C CNN
F 2 "Package_TO_SOT_SMD:SOT-223-3_TabPin2" H 3350 6875 50  0001 C CIN
F 3 "http://www.ti.com/lit/ds/symlink/lm2937.pdf" H 3350 6600 50  0001 C CNN
	1    3350 6650
	-1   0    0    -1  
$EndComp
$Comp
L Device:C C2
U 1 1 5D59F991
P 2900 6900
F 0 "C2" H 2750 7000 50  0000 L CNN
F 1 "10µF" H 2650 6800 50  0000 L CNN
F 2 "Capacitor_SMD:C_1206_3216Metric_Pad1.42x1.75mm_HandSolder" H 2938 6750 50  0001 C CNN
F 3 "~" H 2900 6900 50  0001 C CNN
	1    2900 6900
	1    0    0    -1  
$EndComp
$Comp
L Device:C C4
U 1 1 5D5A004F
P 3850 6900
F 0 "C4" H 3700 7000 50  0000 L CNN
F 1 "100µF" H 3600 6800 50  0000 L CNN
F 2 "Capacitor_SMD:CP_Elec_6.3x5.9" H 3888 6750 50  0001 C CNN
F 3 "~" H 3850 6900 50  0001 C CNN
	1    3850 6900
	1    0    0    -1  
$EndComp
$Comp
L power:GND #PWR07
U 1 1 5D5A0A3A
P 1450 7350
F 0 "#PWR07" H 1450 7100 50  0001 C CNN
F 1 "GND" V 1450 7100 50  0000 C CNN
F 2 "" H 1450 7350 50  0001 C CNN
F 3 "" H 1450 7350 50  0001 C CNN
	1    1450 7350
	1    0    0    -1  
$EndComp
$Comp
L power:GND #PWR033
U 1 1 5D5A0DFC
P 3350 7200
F 0 "#PWR033" H 3350 6950 50  0001 C CNN
F 1 "GND" H 3355 7027 50  0000 C CNN
F 2 "" H 3350 7200 50  0001 C CNN
F 3 "" H 3350 7200 50  0001 C CNN
	1    3350 7200
	1    0    0    -1  
$EndComp
$Comp
L power:GND #PWR038
U 1 1 5D5A0FDC
P 3850 7200
F 0 "#PWR038" H 3850 6950 50  0001 C CNN
F 1 "GND" H 3855 7027 50  0000 C CNN
F 2 "" H 3850 7200 50  0001 C CNN
F 3 "" H 3850 7200 50  0001 C CNN
	1    3850 7200
	1    0    0    -1  
$EndComp
$Comp
L power:+5V #PWR037
U 1 1 5D5A13CA
P 3850 6250
F 0 "#PWR037" H 3850 6100 50  0001 C CNN
F 1 "+5V" H 3865 6423 50  0000 C CNN
F 2 "" H 3850 6250 50  0001 C CNN
F 3 "" H 3850 6250 50  0001 C CNN
	1    3850 6250
	1    0    0    -1  
$EndComp
$Comp
L Device:Jumper_NC_Small JP3
U 1 1 5D5A1995
P 2900 6450
F 0 "JP3" H 2900 6550 50  0000 C CNN
F 1 "JUMPER_POWER" H 2900 6350 50  0001 C CNN
F 2 "Connector_PinHeader_2.54mm:PinHeader_1x02_P2.54mm_Vertical" H 2900 6450 50  0001 C CNN
F 3 "~" H 2900 6450 50  0001 C CNN
	1    2900 6450
	0    -1   -1   0   
$EndComp
$Comp
L power:+3V3 #PWR028
U 1 1 5D5A257D
P 2900 6250
F 0 "#PWR028" H 2900 6100 50  0001 C CNN
F 1 "+3V3" H 2950 6400 50  0000 C CNN
F 2 "" H 2900 6250 50  0001 C CNN
F 3 "" H 2900 6250 50  0001 C CNN
	1    2900 6250
	1    0    0    -1  
$EndComp
Wire Wire Line
	2900 6750 2900 6650
Connection ~ 2900 6650
Wire Wire Line
	2900 6650 3050 6650
Wire Wire Line
	2900 7050 2900 7200
Wire Wire Line
	3350 7200 3350 6950
Wire Wire Line
	3650 6650 3850 6650
Wire Wire Line
	3850 6650 3850 6750
Wire Wire Line
	3850 6250 3850 6650
Connection ~ 3850 6650
Wire Wire Line
	3850 7050 3850 7200
Wire Wire Line
	2900 6250 2900 6350
Wire Wire Line
	2900 6550 2900 6650
Wire Wire Line
	2900 6650 2650 6650
$Comp
L power:+3.3VA #PWR027
U 1 1 5D5F5F3D
P 2650 6250
F 0 "#PWR027" H 2650 6100 50  0001 C CNN
F 1 "+3.3VA" H 2600 6400 50  0000 C CNN
F 2 "" H 2650 6250 50  0001 C CNN
F 3 "" H 2650 6250 50  0001 C CNN
	1    2650 6250
	1    0    0    -1  
$EndComp
Wire Wire Line
	2650 6650 2650 6250
Wire Wire Line
	1150 6700 1250 6700
Wire Wire Line
	1150 6600 1250 6600
Wire Wire Line
	1150 6500 1250 6500
Wire Wire Line
	1150 6400 1250 6400
Wire Wire Line
	1150 6300 1250 6300
Wire Wire Line
	1150 6200 1250 6200
Wire Wire Line
	1150 6100 1250 6100
Wire Wire Line
	1150 6000 1250 6000
Wire Wire Line
	1150 5900 1250 5900
$Comp
L power:+3V3 #PWR08
U 1 1 5D50C832
P 1600 7350
F 0 "#PWR08" H 1600 7200 50  0001 C CNN
F 1 "+3V3" V 1600 7600 50  0000 C CNN
F 2 "" H 1600 7350 50  0001 C CNN
F 3 "" H 1600 7350 50  0001 C CNN
	1    1600 7350
	-1   0    0    1   
$EndComp
Wire Wire Line
	1450 7300 1450 7350
Wire Wire Line
	1150 7300 1450 7300
Wire Wire Line
	1450 7100 1450 7300
Wire Wire Line
	1150 7100 1450 7100
Connection ~ 1450 7300
Wire Wire Line
	1150 7200 1600 7200
Wire Wire Line
	1600 7000 1600 7200
Wire Wire Line
	1150 7000 1600 7000
Text Label 1250 5900 0    50   ~ 0
SPI_CS_A
Text Label 1250 6000 0    50   ~ 0
SPI_MOSI
Text Label 1250 6100 0    50   ~ 0
SPI_MISO
Text Label 1250 6200 0    50   ~ 0
SPI_SCK
Text Label 1250 6300 0    50   ~ 0
SPI_CS_B
Text Label 1250 6600 0    50   ~ 0
I2C_SCL
Text Label 1250 6700 0    50   ~ 0
I2C_SDA
$Comp
L Connector:Screw_Terminal_01x08 J10
U 1 1 5D473F48
P 10950 1850
F 0 "J10" H 11000 2300 50  0000 L CNN
F 1 "PIO RM3.5" H 10750 1350 50  0000 L CNN
F 2 "Connector_Wago:Wago_734-138_1x08_P3.50mm_Vertical" H 10950 1850 50  0001 C CNN
F 3 "~" H 10950 1850 50  0001 C CNN
	1    10950 1850
	1    0    0    -1  
$EndComp
Wire Wire Line
	10200 1550 10350 1550
Connection ~ 10350 1550
Wire Wire Line
	10350 1550 10750 1550
Wire Wire Line
	10750 1650 10350 1650
Connection ~ 10350 1650
Wire Wire Line
	10750 1750 10350 1750
Connection ~ 10350 1750
Wire Wire Line
	10350 1850 10750 1850
Connection ~ 10350 1850
Wire Wire Line
	10750 2050 10350 2050
Connection ~ 10350 2050
Wire Wire Line
	10350 2150 10750 2150
Connection ~ 10350 2150
Wire Wire Line
	10750 2250 10350 2250
Connection ~ 10350 2250
$Comp
L Connector:Conn_01x05_Male J4
U 1 1 5D535FE6
P 2350 1550
F 0 "J4" H 2300 1900 50  0000 C CNN
F 1 "EXT A" H 2300 1250 50  0000 C CNN
F 2 "Connector_JST:JST_XH_B5B-XH-A_1x05_P2.50mm_Vertical" H 2350 1550 50  0001 C CNN
F 3 "~" H 2350 1550 50  0001 C CNN
	1    2350 1550
	1    0    0    -1  
$EndComp
$Comp
L Connector:Conn_01x05_Male J5
U 1 1 5D53735F
P 4650 1550
F 0 "J5" H 4600 1900 50  0000 C CNN
F 1 "EXT B" H 4600 1250 50  0000 C CNN
F 2 "Connector_JST:JST_XH_B5B-XH-A_1x05_P2.50mm_Vertical" H 4650 1550 50  0001 C CNN
F 3 "~" H 4650 1550 50  0001 C CNN
	1    4650 1550
	1    0    0    -1  
$EndComp
Text Notes 7500 1050 0    50   ~ 0
MFRC522_SS|SDA\n
Text Notes 7500 1150 0    50   ~ 0
MFRC522_SCK\n
Text Notes 7500 1250 0    50   ~ 0
MFRC522_MOSI\n
Text Notes 7500 1350 0    50   ~ 0
MFRC522_MISO|SCL\n
Text Notes 7500 1450 0    50   ~ 0
MFRC522_IRQ\n
Text Notes 7500 1550 0    50   ~ 0
MFRC522_GND\n
Text Notes 7500 1650 0    50   ~ 0
MFRC522_RST\n
Text Notes 7500 1750 0    50   ~ 0
MFRC522_3V3\n
Text Notes 2450 1900 0    50   ~ 0
[PS 25/5O]\n
Text Notes 4750 1900 0    50   ~ 0
[PS 25/5O]\n
Text Notes 10700 2500 0    50   ~ 0
[AKL183-08]\n
Text Notes 10050 2500 0    50   ~ 0
[RND205-00139]\n
Text Notes 6750 1900 0    50   ~ 0
[PS 25/8O]\n
Text Notes 8800 5500 0    50   ~ 0
[WSL10-G]
Text Notes 650  7600 0    50   ~ 0
[D-SUB BU 15P]\n
Text Notes 850  4500 0    50   ~ 0
[PS 25/3O]\n
Text Notes 800  5500 0    50   ~ 0
[PS 25/3O]\n
Text Notes 6350 7250 0    50   ~ 0
[HEBL 21]
Wire Wire Line
	1150 6900 1450 6900
Wire Wire Line
	1450 6900 1450 7100
Connection ~ 1450 7100
Text Notes 2300 1550 2    50   ~ 0
EXT_A_GND\n
Text Notes 2300 1450 2    50   ~ 0
EXT_A_3V3\n
Text Notes 2300 1350 2    50   ~ 0
EXT_A_I2C_SDA\n
Text Notes 2300 1650 2    50   ~ 0
EXT_A_I2C_SCL\n
Text Notes 2300 1750 2    50   ~ 0
EXT_A_GPIO
Text Notes 4600 1550 2    50   ~ 0
EXT_B_GND\n
Text Notes 4600 1450 2    50   ~ 0
EXT_B_3V3\n
Text Notes 4600 1350 2    50   ~ 0
EXT_B_I2C_SDA\n
Text Notes 4600 1650 2    50   ~ 0
EXT_B_I2C_SCL\n
Text Notes 4600 1750 2    50   ~ 0
EXT_B_GPIO
Text Label 7700 4950 2    50   ~ 0
PORT_GPIO_A
Text Label 7700 5250 2    50   ~ 0
SPI_SCK
Text Label 9350 5250 0    50   ~ 0
SPI_CS_A
Text Label 9350 5150 0    50   ~ 0
SPI_MOSI
Text Label 7700 5150 2    50   ~ 0
SPI_MISO
Text Label 7700 5050 2    50   ~ 0
I2C_SCL
Text Label 9350 5050 0    50   ~ 0
I2C_SDA
Text Label 6900 1050 0    50   ~ 0
SPI_CS_B
Text Label 6900 1150 0    50   ~ 0
SPI_SCK
Text Label 6900 1250 0    50   ~ 0
SPI_MOSI
Text Label 6900 1350 0    50   ~ 0
SPI_MISO
$Comp
L power:+3V3 #PWR032
U 1 1 5D810E2D
P 7400 1000
F 0 "#PWR032" H 7400 850 50  0001 C CNN
F 1 "+3V3" H 7350 1150 50  0000 C CNN
F 2 "" H 7400 1000 50  0001 C CNN
F 3 "" H 7400 1000 50  0001 C CNN
	1    7400 1000
	1    0    0    -1  
$EndComp
$Comp
L power:GND #PWR031
U 1 1 5D81150C
P 7350 1850
F 0 "#PWR031" H 7350 1600 50  0001 C CNN
F 1 "GND" H 7355 1677 50  0000 C CNN
F 2 "" H 7350 1850 50  0001 C CNN
F 3 "" H 7350 1850 50  0001 C CNN
	1    7350 1850
	1    0    0    -1  
$EndComp
Wire Wire Line
	7400 1750 7400 1000
Wire Wire Line
	6800 1750 7400 1750
Wire Wire Line
	7350 1550 7350 1850
Wire Wire Line
	6800 1550 7350 1550
NoConn ~ 6900 1450
Text Label 6900 1650 0    50   ~ 0
SLAVE_RST
$Comp
L power:GND #PWR029
U 1 1 5D8A4425
P 2900 7200
F 0 "#PWR029" H 2900 6950 50  0001 C CNN
F 1 "GND" H 2905 7027 50  0000 C CNN
F 2 "" H 2900 7200 50  0001 C CNN
F 3 "" H 2900 7200 50  0001 C CNN
	1    2900 7200
	1    0    0    -1  
$EndComp
Connection ~ 1600 7200
Wire Wire Line
	1600 7200 1600 7350
Wire Wire Line
	1150 6800 1750 6800
$Comp
L power:+5V #PWR09
U 1 1 5D50E20C
P 1750 7350
F 0 "#PWR09" H 1750 7200 50  0001 C CNN
F 1 "+5V" V 1750 7600 50  0000 C CNN
F 2 "" H 1750 7350 50  0001 C CNN
F 3 "" H 1750 7350 50  0001 C CNN
	1    1750 7350
	-1   0    0    1   
$EndComp
$Comp
L Device:Jumper_NC_Small JP1
U 1 1 5D8CE5D5
P 2850 4600
F 0 "JP1" H 2850 4700 50  0000 C CNN
F 1 "JUMPER_POWER" H 2850 4500 50  0001 C CNN
F 2 "Connector_PinHeader_2.54mm:PinHeader_1x02_P2.54mm_Vertical" H 2850 4600 50  0001 C CNN
F 3 "~" H 2850 4600 50  0001 C CNN
	1    2850 4600
	0    -1   -1   0   
$EndComp
Wire Wire Line
	2850 4400 2850 4500
Wire Wire Line
	2850 4700 2850 4800
Wire Wire Line
	2850 4800 3600 4800
Wire Wire Line
	5700 4800 6600 4800
Wire Wire Line
	6600 4800 6600 4400
$Comp
L power:GND #PWR015
U 1 1 5D961E1C
P 3350 2550
F 0 "#PWR015" H 3350 2300 50  0001 C CNN
F 1 "GND" H 3400 2400 50  0000 C CNN
F 2 "" H 3350 2550 50  0001 C CNN
F 3 "" H 3350 2550 50  0001 C CNN
	1    3350 2550
	-1   0    0    1   
$EndComp
$Comp
L power:GND #PWR022
U 1 1 5D963DB5
P 5950 2550
F 0 "#PWR022" H 5950 2300 50  0001 C CNN
F 1 "GND" H 6000 2400 50  0000 C CNN
F 2 "" H 5950 2550 50  0001 C CNN
F 3 "" H 5950 2550 50  0001 C CNN
	1    5950 2550
	-1   0    0    1   
$EndComp
Wire Wire Line
	5950 2550 5950 2950
Wire Wire Line
	5950 2950 5700 2950
Wire Wire Line
	3350 2550 3350 2950
Wire Wire Line
	3350 2950 3600 2950
$Comp
L power:GND #PWR023
U 1 1 5D97DA7C
P 6500 4100
F 0 "#PWR023" H 6500 3850 50  0001 C CNN
F 1 "GND" H 6500 3950 50  0000 C CNN
F 2 "" H 6500 4100 50  0001 C CNN
F 3 "" H 6500 4100 50  0001 C CNN
	1    6500 4100
	-1   0    0    1   
$EndComp
Wire Wire Line
	6500 4100 6500 4550
Wire Wire Line
	6500 4550 5700 4550
NoConn ~ 5700 5200
NoConn ~ 5700 5300
NoConn ~ 3600 5300
Text Label 9350 4950 0    50   ~ 0
PORT_GPIO_B
$Comp
L Device:R_Small R13
U 1 1 5DD9413D
P 3150 950
F 0 "R13" V 3050 900 50  0000 C CNN
F 1 "0R" V 3050 1100 50  0000 C CNN
F 2 "Resistors:R_0805_2012Metric_Pad1.15x1.40mm_HandSolder" H 3150 950 50  0001 C CNN
F 3 "~" H 3150 950 50  0001 C CNN
	1    3150 950 
	0    1    1    0   
$EndComp
$Comp
L Device:R_Small R14
U 1 1 5DDA3C86
P 3150 1050
F 0 "R14" V 3250 1000 50  0000 C CNN
F 1 "0R" V 3250 1200 50  0000 C CNN
F 2 "Resistors:R_0805_2012Metric_Pad1.15x1.40mm_HandSolder" H 3150 1050 50  0001 C CNN
F 3 "~" H 3150 1050 50  0001 C CNN
	1    3150 1050
	0    1    1    0   
$EndComp
$Comp
L power:+3V3 #PWR018
U 1 1 5DDBE099
P 2650 1150
F 0 "#PWR018" H 2650 1000 50  0001 C CNN
F 1 "+3V3" V 2650 1400 50  0000 C CNN
F 2 "" H 2650 1150 50  0001 C CNN
F 3 "" H 2650 1150 50  0001 C CNN
	1    2650 1150
	1    0    0    -1  
$EndComp
$Comp
L power:GND #PWR019
U 1 1 5DDD61E6
P 2800 1150
F 0 "#PWR019" H 2800 900 50  0001 C CNN
F 1 "GND" V 2800 900 50  0000 C CNN
F 2 "" H 2800 1150 50  0001 C CNN
F 3 "" H 2800 1150 50  0001 C CNN
	1    2800 1150
	-1   0    0    1   
$EndComp
Wire Wire Line
	2550 1450 2650 1450
Wire Wire Line
	2650 1450 2650 1150
Wire Wire Line
	2550 1550 2800 1550
Wire Wire Line
	2800 1550 2800 1150
Wire Wire Line
	2550 1350 2950 1350
Wire Wire Line
	2950 1350 2950 950 
Wire Wire Line
	2950 950  3050 950 
Wire Wire Line
	2950 1350 3100 1350
Connection ~ 2950 1350
Text Label 3450 950  0    50   ~ 0
I2C_SDA
$Comp
L Device:R_Small R15
U 1 1 5DEDF51B
P 5450 950
F 0 "R15" V 5350 900 50  0000 C CNN
F 1 "0R" V 5350 1100 50  0000 C CNN
F 2 "Resistors:R_0805_2012Metric_Pad1.15x1.40mm_HandSolder" H 5450 950 50  0001 C CNN
F 3 "~" H 5450 950 50  0001 C CNN
	1    5450 950 
	0    1    1    0   
$EndComp
$Comp
L Device:R_Small R16
U 1 1 5DEDF521
P 5450 1050
F 0 "R16" V 5525 1000 50  0000 C CNN
F 1 "0R" V 5525 1200 50  0000 C CNN
F 2 "Resistors:R_0805_2012Metric_Pad1.15x1.40mm_HandSolder" H 5450 1050 50  0001 C CNN
F 3 "~" H 5450 1050 50  0001 C CNN
	1    5450 1050
	0    1    1    0   
$EndComp
Text Label 5750 1050 0    50   ~ 0
I2C_SCL
$Comp
L power:+3V3 #PWR020
U 1 1 5DEDF528
P 4950 1150
F 0 "#PWR020" H 4950 1000 50  0001 C CNN
F 1 "+3V3" V 4950 1400 50  0000 C CNN
F 2 "" H 4950 1150 50  0001 C CNN
F 3 "" H 4950 1150 50  0001 C CNN
	1    4950 1150
	1    0    0    -1  
$EndComp
$Comp
L power:GND #PWR021
U 1 1 5DEDF52E
P 5100 1150
F 0 "#PWR021" H 5100 900 50  0001 C CNN
F 1 "GND" V 5100 900 50  0000 C CNN
F 2 "" H 5100 1150 50  0001 C CNN
F 3 "" H 5100 1150 50  0001 C CNN
	1    5100 1150
	-1   0    0    1   
$EndComp
Wire Wire Line
	4850 1450 4950 1450
Wire Wire Line
	4950 1450 4950 1150
Wire Wire Line
	4850 1550 5100 1550
Wire Wire Line
	5100 1550 5100 1150
Wire Wire Line
	4850 1350 5250 1350
Wire Wire Line
	5250 1350 5250 950 
Wire Wire Line
	5250 950  5350 950 
Wire Wire Line
	4850 1650 5300 1650
Wire Wire Line
	5350 1050 5300 1050
Wire Wire Line
	5300 1050 5300 1650
Connection ~ 5300 1650
Wire Wire Line
	5300 1650 5400 1650
Wire Wire Line
	5250 1350 5400 1350
Connection ~ 5250 1350
Text Label 5750 950  0    50   ~ 0
I2C_SDA
Wire Wire Line
	4850 1750 5300 1750
Text Label 3100 1750 0    50   ~ 0
EXT_A_GPIO
Text Label 5650 1850 0    50   ~ 0
UART_RX
$Comp
L Device:R_Small R17
U 1 1 5E2EDE69
P 5450 1850
F 0 "R17" V 5525 1800 50  0000 C CNN
F 1 "0R" V 5525 2000 50  0000 C CNN
F 2 "Resistors:R_0805_2012Metric_Pad1.15x1.40mm_HandSolder" H 5450 1850 50  0001 C CNN
F 3 "~" H 5450 1850 50  0001 C CNN
	1    5450 1850
	0    1    1    0   
$EndComp
Wire Wire Line
	5350 1850 5300 1850
Wire Wire Line
	5300 1850 5300 1750
Connection ~ 5300 1750
Wire Wire Line
	5300 1750 5400 1750
Wire Wire Line
	3250 950  3450 950 
Wire Wire Line
	2550 1650 3000 1650
Wire Wire Line
	3050 1050 3000 1050
Wire Wire Line
	3000 1050 3000 1650
Connection ~ 3000 1650
Wire Wire Line
	3000 1650 3100 1650
Wire Wire Line
	3250 1050 3450 1050
Wire Wire Line
	5550 950  5750 950 
Wire Wire Line
	5550 1050 5750 1050
Wire Wire Line
	5550 1850 5650 1850
Text Label 5400 1750 0    50   ~ 0
EXT_B_GPIO
Text Label 3450 1050 0    50   ~ 0
I2C_SCL
Wire Wire Line
	2550 1750 3100 1750
Text Label 3100 1350 0    50   ~ 0
EXT_I2C_SDA
Text Label 3100 1650 0    50   ~ 0
EXT_I2C_SCL
Text Label 5400 1350 0    50   ~ 0
EXT_I2C_SDA
Text Label 5400 1650 0    50   ~ 0
EXT_I2C_SCL
Text Label 3500 3450 2    50   ~ 0
RDM_B_TX
Text Label 3500 3700 2    50   ~ 0
RDM_A_TX
Text Label 3500 3950 2    50   ~ 0
PORT_GPIO_B
Text Label 5800 3700 0    50   ~ 0
SPI_CS_B
Text Label 5800 4300 0    50   ~ 0
I2C_SCL
Text Label 5800 5050 0    50   ~ 0
SPI_MISO
Text Label 3500 4450 2    50   ~ 0
SPI_SCK
Text Label 3500 5050 2    50   ~ 0
I2C_SDA
Wire Wire Line
	3500 3300 3600 3300
Wire Wire Line
	3500 3450 3600 3450
Wire Wire Line
	3500 3700 3600 3700
Wire Wire Line
	3500 3950 3600 3950
Wire Wire Line
	3500 4450 3600 4450
Wire Wire Line
	3500 5050 3600 5050
NoConn ~ 3600 4950
NoConn ~ 5700 4950
Wire Wire Line
	5700 3700 5800 3700
Wire Wire Line
	5800 4300 5700 4300
Wire Wire Line
	5700 5050 5800 5050
Text Label 5800 4450 0    50   ~ 0
EXT_A_GPIO
Text Label 5800 4700 0    50   ~ 0
SPI_MOSI
Wire Wire Line
	5700 4450 5800 4450
Wire Wire Line
	5800 4700 5700 4700
Text Label 5800 3300 0    50   ~ 0
UART_RX
Text Label 5800 4200 0    50   ~ 0
PORT_GPIO_A
Text Label 3500 4550 2    50   ~ 0
SPI_CS_A
Wire Wire Line
	3500 4550 3600 4550
Wire Wire Line
	5800 4200 5700 4200
Wire Wire Line
	5800 3300 5700 3300
NoConn ~ 3600 4700
NoConn ~ 3600 5200
NoConn ~ 3600 3200
Text Label 3500 3800 2    50   ~ 0
EXT_I2C_SDA
Text Label 3500 4050 2    50   ~ 0
EXT_I2C_SCL
Text Label 5800 3550 0    50   ~ 0
RDM_B_TX
Text Label 5800 3800 0    50   ~ 0
RDM_A_TX
Text Label 3500 4300 2    50   ~ 0
EXT_B_GPIO
Text Label 5800 3950 0    50   ~ 0
SLAVE_RST
Wire Wire Line
	1750 6800 1750 7350
Wire Wire Line
	10350 1950 10750 1950
Wire Wire Line
	10350 1950 10100 1950
Connection ~ 10350 1950
Text Label 1250 6500 0    50   ~ 0
PORT_GPIO_B
Text Label 1250 6400 0    50   ~ 0
PORT_GPIO_A
Text Label 8150 2750 2    50   ~ 0
EXT_A_GPIO
Text Label 8850 2200 2    50   ~ 0
EXT_B_GPIO
$Comp
L power:PWR_FLAG #FLG0101
U 1 1 5EA80CA0
P 10400 5250
F 0 "#FLG0101" H 10400 5325 50  0001 C CNN
F 1 "PWR_FLAG" H 10400 5400 50  0000 C CNN
F 2 "" H 10400 5250 50  0001 C CNN
F 3 "~" H 10400 5250 50  0001 C CNN
	1    10400 5250
	1    0    0    -1  
$EndComp
$Comp
L power:GND #PWR0101
U 1 1 5EA81DC4
P 10850 5250
F 0 "#PWR0101" H 10850 5000 50  0001 C CNN
F 1 "GND" H 10850 5100 50  0000 C CNN
F 2 "" H 10850 5250 50  0001 C CNN
F 3 "" H 10850 5250 50  0001 C CNN
	1    10850 5250
	-1   0    0    1   
$EndComp
Wire Wire Line
	10400 5250 10400 5300
Wire Wire Line
	10400 5300 10850 5300
Wire Wire Line
	10850 5300 10850 5250
$Comp
L power:+3V3 #PWR0102
U 1 1 5EA9C20C
P 10850 5550
F 0 "#PWR0102" H 10850 5400 50  0001 C CNN
F 1 "+3V3" H 10900 5700 50  0000 C CNN
F 2 "" H 10850 5550 50  0001 C CNN
F 3 "" H 10850 5550 50  0001 C CNN
	1    10850 5550
	1    0    0    -1  
$EndComp
$Comp
L power:VDDA #PWR0103
U 1 1 5EAB5E0C
P 10850 5850
F 0 "#PWR0103" H 10850 5700 50  0001 C CNN
F 1 "VDDA" H 10850 6000 50  0000 C CNN
F 2 "" H 10850 5850 50  0001 C CNN
F 3 "" H 10850 5850 50  0001 C CNN
	1    10850 5850
	1    0    0    -1  
$EndComp
$Comp
L power:PWR_FLAG #FLG0102
U 1 1 5EAB67BD
P 10400 5550
F 0 "#FLG0102" H 10400 5625 50  0001 C CNN
F 1 "PWR_FLAG" H 10400 5700 50  0000 C CNN
F 2 "" H 10400 5550 50  0001 C CNN
F 3 "~" H 10400 5550 50  0001 C CNN
	1    10400 5550
	1    0    0    -1  
$EndComp
Wire Wire Line
	10850 5550 10850 5600
Wire Wire Line
	10850 5600 10400 5600
Wire Wire Line
	10400 5600 10400 5550
$Comp
L power:PWR_FLAG #FLG0103
U 1 1 5EAD0B52
P 10400 5850
F 0 "#FLG0103" H 10400 5925 50  0001 C CNN
F 1 "PWR_FLAG" H 10400 6000 50  0000 C CNN
F 2 "" H 10400 5850 50  0001 C CNN
F 3 "~" H 10400 5850 50  0001 C CNN
	1    10400 5850
	1    0    0    -1  
$EndComp
Wire Wire Line
	10400 5850 10400 5900
Wire Wire Line
	10400 5900 10850 5900
Wire Wire Line
	10850 5900 10850 5850
$Comp
L power:VDD #PWR050
U 1 1 5D3C44B9
P 10200 1000
F 0 "#PWR050" H 10200 850 50  0001 C CNN
F 1 "VDD" H 10217 1173 50  0000 C CNN
F 2 "" H 10200 1000 50  0001 C CNN
F 3 "" H 10200 1000 50  0001 C CNN
	1    10200 1000
	1    0    0    -1  
$EndComp
$Comp
L power:VDD #PWR0104
U 1 1 5EB060B9
P 10850 6150
F 0 "#PWR0104" H 10850 6000 50  0001 C CNN
F 1 "VDD" H 10867 6323 50  0000 C CNN
F 2 "" H 10850 6150 50  0001 C CNN
F 3 "" H 10850 6150 50  0001 C CNN
	1    10850 6150
	1    0    0    -1  
$EndComp
$Comp
L power:PWR_FLAG #FLG0104
U 1 1 5EB0665D
P 10400 6150
F 0 "#FLG0104" H 10400 6225 50  0001 C CNN
F 1 "PWR_FLAG" H 10400 6300 50  0000 C CNN
F 2 "" H 10400 6150 50  0001 C CNN
F 3 "~" H 10400 6150 50  0001 C CNN
	1    10400 6150
	1    0    0    -1  
$EndComp
Wire Wire Line
	10400 6150 10400 6200
Wire Wire Line
	10400 6200 10850 6200
Wire Wire Line
	10850 6200 10850 6150
Text Label 1300 2950 2    50   ~ 0
EXT_A_GPIO
Text Label 1300 3250 2    50   ~ 0
EXT_B_GPIO
Text Label 3500 4200 2    50   ~ 0
SWIN1
Text Label 3500 3300 2    50   ~ 0
SWIN2
$Comp
L Mechanical:MountingHole H2
U 1 1 5EB6DE0D
P 10400 4500
F 0 "H2" H 10500 4500 50  0000 L CNN
F 1 "MountingHole" H 10500 4455 50  0001 L CNN
F 2 "MountingHole:MountingHole_2.2mm_M2_Pad_Via" H 10400 4500 50  0001 C CNN
F 3 "~" H 10400 4500 50  0001 C CNN
	1    10400 4500
	1    0    0    -1  
$EndComp
$Comp
L Mechanical:MountingHole H4
U 1 1 5EB6DFEE
P 10800 4500
F 0 "H4" H 10900 4500 50  0000 L CNN
F 1 "MountingHole" H 10900 4455 50  0001 L CNN
F 2 "MountingHole:MountingHole_2.2mm_M2_Pad_Via" H 10800 4500 50  0001 C CNN
F 3 "~" H 10800 4500 50  0001 C CNN
	1    10800 4500
	1    0    0    -1  
$EndComp
$Comp
L Mechanical:MountingHole H3
U 1 1 5EB6E25B
P 10800 4150
F 0 "H3" H 10900 4150 50  0000 L CNN
F 1 "MountingHole" H 10900 4105 50  0001 L CNN
F 2 "MountingHole:MountingHole_2.2mm_M2_Pad_Via" H 10800 4150 50  0001 C CNN
F 3 "~" H 10800 4150 50  0001 C CNN
	1    10800 4150
	1    0    0    -1  
$EndComp
$Comp
L Device:R_Small R21
U 1 1 5ECBE841
P 9150 2200
F 0 "R21" V 9075 2125 50  0000 C CNN
F 1 "100R" V 9225 2250 50  0000 C CNN
F 2 "Resistors:R_0805_2012Metric_Pad1.15x1.40mm_HandSolder" H 9150 2200 50  0001 C CNN
F 3 "~" H 9150 2200 50  0001 C CNN
	1    9150 2200
	0    1    1    0   
$EndComp
$Comp
L Device:Q_NMOS_GDS Q2
U 1 1 5D3A33BB
P 9550 2200
F 0 "Q2" H 9400 2400 50  0000 L CNN
F 1 "IRLZ44N" H 9700 1950 50  0000 L CNN
F 2 "Package_TO_SOT_THT:TO-220-3_Vertical" H 9750 2300 50  0001 C CNN
F 3 "~" H 9550 2200 50  0001 C CNN
	1    9550 2200
	1    0    0    -1  
$EndComp
$Comp
L Device:R_Small R30
U 1 1 5ECBF710
P 9450 2450
F 0 "R30" V 9350 2400 50  0000 C CNN
F 1 "22K" V 9550 2550 50  0000 C CNN
F 2 "Resistors:R_0805_2012Metric_Pad1.15x1.40mm_HandSolder" H 9450 2450 50  0001 C CNN
F 3 "~" H 9450 2450 50  0001 C CNN
	1    9450 2450
	0    1    1    0   
$EndComp
Wire Wire Line
	9250 2200 9300 2200
Wire Wire Line
	9300 2200 9300 2450
Wire Wire Line
	9300 2450 9350 2450
Connection ~ 9300 2200
Wire Wire Line
	9300 2200 9350 2200
Wire Wire Line
	9550 2450 9650 2450
Wire Wire Line
	9050 2200 8850 2200
$Comp
L Device:R_Small R19
U 1 1 5ED9239B
P 8750 3000
F 0 "R19" V 8675 2950 50  0000 C CNN
F 1 "22K" V 8825 3100 50  0000 C CNN
F 2 "Resistors:R_0805_2012Metric_Pad1.15x1.40mm_HandSolder" H 8750 3000 50  0001 C CNN
F 3 "~" H 8750 3000 50  0001 C CNN
	1    8750 3000
	0    1    1    0   
$EndComp
$Comp
L Device:R_Small R18
U 1 1 5ED9291A
P 8450 2750
F 0 "R18" V 8375 2675 50  0000 C CNN
F 1 "100R" V 8525 2775 50  0000 C CNN
F 2 "Resistors:R_0805_2012Metric_Pad1.15x1.40mm_HandSolder" H 8450 2750 50  0001 C CNN
F 3 "~" H 8450 2750 50  0001 C CNN
	1    8450 2750
	0    1    1    0   
$EndComp
Wire Wire Line
	8150 2750 8350 2750
Wire Wire Line
	8550 2750 8600 2750
Wire Wire Line
	8600 2750 8600 3000
Connection ~ 8600 2750
Wire Wire Line
	8600 2750 8650 2750
Wire Wire Line
	8600 3000 8650 3000
Wire Wire Line
	8850 3000 8950 3000
Wire Wire Line
	4850 6750 4650 6750
$Comp
L power:+5V #PWR025
U 1 1 5D45F684
P 4650 6250
F 0 "#PWR025" H 4650 6100 50  0001 C CNN
F 1 "+5V" H 4665 6423 50  0000 C CNN
F 2 "" H 4650 6250 50  0001 C CNN
F 3 "" H 4650 6250 50  0001 C CNN
	1    4650 6250
	1    0    0    -1  
$EndComp
Wire Wire Line
	4650 6250 4650 6750
Connection ~ 4650 6750
Wire Wire Line
	4650 6850 4650 6750
Wire Wire Line
	4650 7150 4650 7200
$Comp
L power:GND #PWR026
U 1 1 5D45EAC4
P 4650 7200
F 0 "#PWR026" H 4650 6950 50  0001 C CNN
F 1 "GND" H 4655 7027 50  0000 C CNN
F 2 "" H 4650 7200 50  0001 C CNN
F 3 "" H 4650 7200 50  0001 C CNN
	1    4650 7200
	1    0    0    -1  
$EndComp
$Comp
L Device:C C1
U 1 1 5D45E3E6
P 4650 7000
F 0 "C1" H 4500 7100 50  0000 L CNN
F 1 "10µF" H 4400 6900 50  0000 L CNN
F 2 "Capacitor_SMD:C_1206_3216Metric_Pad1.42x1.75mm_HandSolder" H 4688 6850 50  0001 C CNN
F 3 "~" H 4650 7000 50  0001 C CNN
	1    4650 7000
	1    0    0    -1  
$EndComp
Wire Wire Line
	1300 2250 1450 2250
NoConn ~ 5700 3200
NoConn ~ 5700 3450
NoConn ~ 5700 4050
Wire Wire Line
	5700 3550 5800 3550
Wire Wire Line
	5700 3800 5800 3800
Wire Wire Line
	5700 3950 5800 3950
NoConn ~ 3600 3550
Wire Wire Line
	3600 3800 3500 3800
Wire Wire Line
	3500 4050 3600 4050
Wire Wire Line
	3600 4200 3500 4200
Wire Wire Line
	3500 4300 3600 4300
Wire Wire Line
	5750 6250 5750 6400
$Comp
L Device:R_Small R29
U 1 1 5D78DB2C
P 1300 2400
F 0 "R29" V 1375 2300 50  0000 C CNN
F 1 "47K" V 1375 2500 50  0000 C CNN
F 2 "Resistors:R_0805_2012Metric_Pad1.15x1.40mm_HandSolder" H 1300 2400 50  0001 C CNN
F 3 "~" H 1300 2400 50  0001 C CNN
	1    1300 2400
	0    -1   -1   0   
$EndComp
$Comp
L Device:R_Small R28
U 1 1 5D78EBA7
P 1300 2050
F 0 "R28" V 1375 1950 50  0000 C CNN
F 1 "47K" V 1375 2150 50  0000 C CNN
F 2 "Resistors:R_0805_2012Metric_Pad1.15x1.40mm_HandSolder" H 1300 2050 50  0001 C CNN
F 3 "~" H 1300 2050 50  0001 C CNN
	1    1300 2050
	0    -1   -1   0   
$EndComp
$Comp
L power:VDDA #PWR0105
U 1 1 5D78EFD1
P 1050 1900
F 0 "#PWR0105" H 1050 1750 50  0001 C CNN
F 1 "VDDA" H 1100 2100 50  0000 C CNN
F 2 "" H 1050 1900 50  0001 C CNN
F 3 "" H 1050 1900 50  0001 C CNN
	1    1050 1900
	1    0    0    -1  
$EndComp
$Comp
L power:VDDA #PWR0106
U 1 1 5D79003D
P 850 1900
F 0 "#PWR0106" H 850 1750 50  0001 C CNN
F 1 "VDDA" H 850 2100 50  0000 C CNN
F 2 "" H 850 1900 50  0001 C CNN
F 3 "" H 850 1900 50  0001 C CNN
	1    850  1900
	1    0    0    -1  
$EndComp
Wire Wire Line
	1400 2050 1450 2050
Wire Wire Line
	1450 2050 1450 2250
Connection ~ 1450 2250
Wire Wire Line
	1450 2250 1500 2250
Wire Wire Line
	1300 2600 1450 2600
Wire Wire Line
	1400 2400 1450 2400
Wire Wire Line
	1450 2400 1450 2600
Connection ~ 1450 2600
Wire Wire Line
	1450 2600 1500 2600
Wire Wire Line
	1200 2400 850  2400
Wire Wire Line
	850  2400 850  1900
Wire Wire Line
	1200 2050 1050 2050
Wire Wire Line
	1050 2050 1050 1900
Text Notes 800  3525 0    50   ~ 0
R11/12 @24V = 3K3 Ohm
NoConn ~ 5700 3050
NoConn ~ 3600 3050
Text Notes 800  3600 0    50   ~ 0
R11/12 @12V = 6K8 Ohm 
$EndSCHEMATC
